{
	"title":"|Im(M)|^2(kT3,kT4) (S35→4MT^2) w\/ E3=192 GeV",
	"vars":[
		"kT3",
		"kT4"
	],
	"data":[
		[
			36.2698048135104,
			134.134791901549,
			0
		],
		[
			36.2698048135104,
			132.019406105021,
			0
		],
		[
			36.2698048135104,
			127.821995409646,
			0
		],
		[
			36.2698048135104,
			121.608755489502,
			0
		],
		[
			53.6885750568670,
			134.134791901549,
			0
		],
		[
			53.6885750568670,
			134.134791901549,
			0
		],
		[
			53.6885750568670,
			132.019406105021,
			0
		],
		[
			53.6885750568670,
			127.821995409646,
			0
		],
		[
			53.6885750568670,
			121.608755489502,
			0
		],
		[
			53.6885750568670,
			113.477672849740,
			0
		],
		[
			70.2606443995767,
			132.019406105021,
			0
		],
		[
			70.2606443995767,
			134.134791901549,
			0
		],
		[
			70.2606443995767,
			134.134791901549,
			0
		],
		[
			70.2606443995767,
			132.019406105021,
			0
		],
		[
			70.2606443995767,
			127.821995409646,
			0
		],
		[
			70.2606443995767,
			121.608755489502,
			0
		],
		[
			70.2606443995767,
			113.477672849740,
			0
		],
		[
			70.2606443995767,
			103.556979520861,
			0
		],
		[
			85.7246614084305,
			127.821995409646,
			0
		],
		[
			85.7246614084305,
			132.019406105021,
			0
		],
		[
			85.7246614084305,
			134.134791901549,
			0
		],
		[
			85.7246614084305,
			134.134791901549,
			0
		],
		[
			85.7246614084305,
			132.019406105021,
			0
		],
		[
			85.7246614084305,
			127.821995409646,
			0
		],
		[
			85.7246614084305,
			121.608755489502,
			0
		],
		[
			85.7246614084305,
			113.477672849740,
			0
		],
		[
			85.7246614084305,
			103.556979520861,
			0
		],
		[
			85.7246614084305,
			92.0031307629969,
			0
		],
		[
			99.8367492974429,
			121.608755489502,
			0
		],
		[
			99.8367492974429,
			127.821995409646,
			0
		],
		[
			99.8367492974429,
			132.019406105021,
			0
		],
		[
			99.8367492974429,
			134.134791901549,
			0
		],
		[
			99.8367492974429,
			134.134791901549,
			0
		],
		[
			99.8367492974429,
			132.019406105021,
			0
		],
		[
			99.8367492974429,
			127.821995409646,
			0
		],
		[
			99.8367492974429,
			121.608755489502,
			0
		],
		[
			99.8367492974429,
			113.477672849740,
			0
		],
		[
			99.8367492974429,
			103.556979520861,
			0
		],
		[
			99.8367492974429,
			92.0031307629969,
			0
		],
		[
			99.8367492974429,
			78.9983376729943,
			0
		],
		[
			112.374352010451,
			113.477672849740,
			0
		],
		[
			112.374352010451,
			121.608755489502,
			0
		],
		[
			112.374352010451,
			127.821995409646,
			0
		],
		[
			112.374352010451,
			132.019406105021,
			0
		],
		[
			112.374352010451,
			134.134791901549,
			0
		],
		[
			112.374352010451,
			134.134791901549,
			0
		],
		[
			112.374352010451,
			132.019406105021,
			0
		],
		[
			112.374352010451,
			127.821995409646,
			0
		],
		[
			112.374352010451,
			121.608755489502,
			0
		],
		[
			112.374352010451,
			113.477672849740,
			0
		],
		[
			112.374352010451,
			103.556979520861,
			0
		],
		[
			112.374352010451,
			92.0031307629969,
			0
		],
		[
			112.374352010451,
			78.9983376729943,
			0
		],
		[
			112.374352010451,
			64.7476936065690,
			0
		],
		[
			123.139744063071,
			103.556979520861,
			0
		],
		[
			123.139744063071,
			113.477672849740,
			0
		],
		[
			123.139744063071,
			121.608755489502,
			0
		],
		[
			123.139744063071,
			127.821995409646,
			0
		],
		[
			123.139744063071,
			132.019406105021,
			0
		],
		[
			123.139744063071,
			134.134791901549,
			0
		],
		[
			123.139744063071,
			134.134791901549,
			0
		],
		[
			123.139744063071,
			132.019406105021,
			0
		],
		[
			123.139744063071,
			127.821995409646,
			0
		],
		[
			123.139744063071,
			121.608755489502,
			0
		],
		[
			123.139744063071,
			113.477672849740,
			0
		],
		[
			123.139744063071,
			103.556979520861,
			0
		],
		[
			123.139744063071,
			92.0031307629969,
			0
		],
		[
			123.139744063071,
			78.9983376729943,
			0
		],
		[
			123.139744063071,
			64.7476936065690,
			0
		],
		[
			123.139744063071,
			49.4759397335709,
			0
		],
		[
			131.963148791699,
			92.0031307629969,
			0
		],
		[
			131.963148791699,
			103.556979520861,
			0
		],
		[
			131.963148791699,
			113.477672849740,
			0
		],
		[
			131.963148791699,
			121.608755489502,
			0
		],
		[
			131.963148791699,
			127.821995409646,
			0
		],
		[
			131.963148791699,
			132.019406105021,
			0
		],
		[
			131.963148791699,
			134.134791901549,
			0
		],
		[
			131.963148791699,
			134.134791901549,
			0
		],
		[
			131.963148791699,
			132.019406105021,
			0
		],
		[
			131.963148791699,
			127.821995409646,
			0
		],
		[
			131.963148791699,
			121.608755489502,
			0
		],
		[
			131.963148791699,
			113.477672849740,
			0
		],
		[
			131.963148791699,
			103.556979520861,
			0
		],
		[
			131.963148791699,
			92.0031307629969,
			0
		],
		[
			131.963148791699,
			78.9983376729943,
			0
		],
		[
			131.963148791699,
			64.7476936065690,
			0
		],
		[
			131.963148791699,
			49.4759397335709,
			0
		],
		[
			131.963148791699,
			33.4239207354805,
			0
		],
		[
			138.705415832917,
			78.9983376729943,
			0
		],
		[
			138.705415832917,
			92.0031307629969,
			0
		],
		[
			138.705415832917,
			103.556979520861,
			0
		],
		[
			138.705415832917,
			113.477672849740,
			0
		],
		[
			138.705415832917,
			121.608755489502,
			0
		],
		[
			138.705415832917,
			127.821995409646,
			0
		],
		[
			138.705415832917,
			132.019406105021,
			0
		],
		[
			138.705415832917,
			134.134791901549,
			0
		],
		[
			138.705415832917,
			134.134791901549,
			0
		],
		[
			138.705415832917,
			132.019406105021,
			0
		],
		[
			138.705415832917,
			127.821995409646,
			0
		],
		[
			138.705415832917,
			121.608755489502,
			0
		],
		[
			138.705415832917,
			113.477672849740,
			0
		],
		[
			138.705415832917,
			103.556979520861,
			0
		],
		[
			138.705415832917,
			92.0031307629969,
			0
		],
		[
			138.705415832917,
			78.9983376729943,
			0
		],
		[
			138.705415832917,
			64.7476936065690,
			0
		],
		[
			138.705415832917,
			49.4759397335709,
			0
		],
		[
			138.705415832917,
			33.4239207354805,
			0
		],
		[
			143.260215607851,
			64.7476936065690,
			0
		],
		[
			143.260215607851,
			78.9983376729943,
			0
		],
		[
			143.260215607851,
			92.0031307629969,
			0
		],
		[
			143.260215607851,
			103.556979520861,
			0
		],
		[
			143.260215607851,
			113.477672849740,
			0
		],
		[
			143.260215607851,
			121.608755489502,
			0
		],
		[
			143.260215607851,
			127.821995409646,
			0
		],
		[
			143.260215607851,
			132.019406105021,
			0
		],
		[
			143.260215607851,
			134.134791901549,
			0
		],
		[
			143.260215607851,
			134.134791901549,
			0
		],
		[
			143.260215607851,
			132.019406105021,
			0
		],
		[
			143.260215607851,
			127.821995409646,
			0
		],
		[
			143.260215607851,
			121.608755489502,
			0
		],
		[
			143.260215607851,
			113.477672849740,
			0
		],
		[
			143.260215607851,
			103.556979520861,
			0
		],
		[
			143.260215607851,
			92.0031307629969,
			0
		],
		[
			143.260215607851,
			78.9983376729943,
			0
		],
		[
			143.260215607851,
			64.7476936065690,
			0
		],
		[
			143.260215607851,
			49.4759397335709,
			0
		],
		[
			143.260215607851,
			33.4239207354805,
			0
		],
		[
			145.555716203145,
			49.4759397335709,
			0
		],
		[
			145.555716203145,
			64.7476936065690,
			0
		],
		[
			145.555716203145,
			78.9983376729943,
			0
		],
		[
			145.555716203145,
			92.0031307629969,
			0
		],
		[
			145.555716203145,
			103.556979520861,
			0
		],
		[
			145.555716203145,
			113.477672849740,
			0
		],
		[
			145.555716203145,
			121.608755489502,
			0
		],
		[
			145.555716203145,
			127.821995409646,
			0
		],
		[
			145.555716203145,
			132.019406105021,
			0
		],
		[
			145.555716203145,
			134.134791901549,
			0
		],
		[
			145.555716203145,
			134.134791901549,
			0
		],
		[
			145.555716203145,
			132.019406105021,
			0
		],
		[
			145.555716203145,
			127.821995409646,
			0
		],
		[
			145.555716203145,
			121.608755489502,
			0
		],
		[
			145.555716203145,
			113.477672849740,
			0
		],
		[
			145.555716203145,
			103.556979520861,
			0
		],
		[
			145.555716203145,
			92.0031307629969,
			0
		],
		[
			145.555716203145,
			78.9983376729943,
			0
		],
		[
			145.555716203145,
			64.7476936065690,
			0
		],
		[
			145.555716203145,
			49.4759397335709,
			0
		],
		[
			145.555716203145,
			33.4239207354805,
			0
		],
		[
			145.555716203145,
			33.4239207354805,
			0
		],
		[
			145.555716203145,
			49.4759397335709,
			0
		],
		[
			145.555716203145,
			64.7476936065690,
			0
		],
		[
			145.555716203145,
			78.9983376729943,
			0
		],
		[
			145.555716203145,
			92.0031307629969,
			0
		],
		[
			145.555716203145,
			103.556979520861,
			0
		],
		[
			145.555716203145,
			113.477672849740,
			0
		],
		[
			145.555716203145,
			121.608755489502,
			0
		],
		[
			145.555716203145,
			127.821995409646,
			0
		],
		[
			145.555716203145,
			132.019406105021,
			0
		],
		[
			145.555716203145,
			134.134791901549,
			0
		],
		[
			145.555716203145,
			134.134791901549,
			0
		],
		[
			145.555716203145,
			132.019406105021,
			0
		],
		[
			145.555716203145,
			127.821995409646,
			0
		],
		[
			145.555716203145,
			121.608755489502,
			0
		],
		[
			145.555716203145,
			113.477672849740,
			0
		],
		[
			145.555716203145,
			103.556979520861,
			0
		],
		[
			145.555716203145,
			92.0031307629969,
			0
		],
		[
			145.555716203145,
			78.9983376729943,
			0
		],
		[
			145.555716203145,
			64.7476936065690,
			0
		],
		[
			145.555716203145,
			49.4759397335709,
			0
		],
		[
			143.260215607851,
			33.4239207354805,
			0
		],
		[
			143.260215607851,
			49.4759397335709,
			0
		],
		[
			143.260215607851,
			64.7476936065690,
			0
		],
		[
			143.260215607851,
			78.9983376729943,
			0
		],
		[
			143.260215607851,
			92.0031307629969,
			0
		],
		[
			143.260215607851,
			103.556979520861,
			0
		],
		[
			143.260215607851,
			113.477672849740,
			0
		],
		[
			143.260215607851,
			121.608755489502,
			0
		],
		[
			143.260215607851,
			127.821995409646,
			0
		],
		[
			143.260215607851,
			132.019406105021,
			0
		],
		[
			143.260215607851,
			134.134791901549,
			0
		],
		[
			143.260215607851,
			134.134791901549,
			0
		],
		[
			143.260215607851,
			132.019406105021,
			0
		],
		[
			143.260215607851,
			127.821995409646,
			0
		],
		[
			143.260215607851,
			121.608755489502,
			0
		],
		[
			143.260215607851,
			113.477672849740,
			0
		],
		[
			143.260215607851,
			103.556979520861,
			0
		],
		[
			143.260215607851,
			92.0031307629969,
			0
		],
		[
			143.260215607851,
			78.9983376729943,
			0
		],
		[
			143.260215607851,
			64.7476936065690,
			0
		],
		[
			138.705415832917,
			33.4239207354805,
			0
		],
		[
			138.705415832917,
			49.4759397335709,
			0
		],
		[
			138.705415832917,
			64.7476936065690,
			0
		],
		[
			138.705415832917,
			78.9983376729943,
			0
		],
		[
			138.705415832917,
			92.0031307629969,
			0
		],
		[
			138.705415832917,
			103.556979520861,
			0
		],
		[
			138.705415832917,
			113.477672849740,
			0
		],
		[
			138.705415832917,
			121.608755489502,
			0
		],
		[
			138.705415832917,
			127.821995409646,
			0
		],
		[
			138.705415832917,
			132.019406105021,
			0
		],
		[
			138.705415832917,
			134.134791901549,
			0
		],
		[
			138.705415832917,
			134.134791901549,
			0
		],
		[
			138.705415832917,
			132.019406105021,
			0
		],
		[
			138.705415832917,
			127.821995409646,
			0
		],
		[
			138.705415832917,
			121.608755489502,
			0
		],
		[
			138.705415832917,
			113.477672849740,
			0
		],
		[
			138.705415832917,
			103.556979520861,
			0
		],
		[
			138.705415832917,
			92.0031307629969,
			0
		],
		[
			138.705415832917,
			78.9983376729943,
			0
		],
		[
			131.963148791699,
			33.4239207354805,
			0
		],
		[
			131.963148791699,
			49.4759397335709,
			0
		],
		[
			131.963148791699,
			64.7476936065690,
			0
		],
		[
			131.963148791699,
			78.9983376729943,
			0
		],
		[
			131.963148791699,
			92.0031307629969,
			0
		],
		[
			131.963148791699,
			103.556979520861,
			0
		],
		[
			131.963148791699,
			113.477672849740,
			0
		],
		[
			131.963148791699,
			121.608755489502,
			0
		],
		[
			131.963148791699,
			127.821995409646,
			0
		],
		[
			131.963148791699,
			132.019406105021,
			0
		],
		[
			131.963148791699,
			134.134791901549,
			0
		],
		[
			131.963148791699,
			134.134791901549,
			0
		],
		[
			131.963148791699,
			132.019406105021,
			0
		],
		[
			131.963148791699,
			127.821995409646,
			0
		],
		[
			131.963148791699,
			121.608755489502,
			0
		],
		[
			131.963148791699,
			113.477672849740,
			0
		],
		[
			131.963148791699,
			103.556979520861,
			0
		],
		[
			131.963148791699,
			92.0031307629969,
			0
		],
		[
			123.139744063071,
			49.4759397335709,
			0
		],
		[
			123.139744063071,
			64.7476936065690,
			0
		],
		[
			123.139744063071,
			78.9983376729943,
			0
		],
		[
			123.139744063071,
			92.0031307629969,
			0
		],
		[
			123.139744063071,
			103.556979520861,
			0
		],
		[
			123.139744063071,
			113.477672849740,
			0
		],
		[
			123.139744063071,
			121.608755489502,
			0
		],
		[
			123.139744063071,
			127.821995409646,
			0
		],
		[
			123.139744063071,
			132.019406105021,
			0
		],
		[
			123.139744063071,
			134.134791901549,
			0
		],
		[
			123.139744063071,
			134.134791901549,
			0
		],
		[
			123.139744063071,
			132.019406105021,
			0
		],
		[
			123.139744063071,
			127.821995409646,
			0
		],
		[
			123.139744063071,
			121.608755489502,
			0
		],
		[
			123.139744063071,
			113.477672849740,
			0
		],
		[
			123.139744063071,
			103.556979520861,
			0
		],
		[
			112.374352010451,
			64.7476936065690,
			0
		],
		[
			112.374352010451,
			78.9983376729943,
			0
		],
		[
			112.374352010451,
			92.0031307629969,
			0
		],
		[
			112.374352010451,
			103.556979520861,
			0
		],
		[
			112.374352010451,
			113.477672849740,
			0
		],
		[
			112.374352010451,
			121.608755489502,
			0
		],
		[
			112.374352010451,
			127.821995409646,
			0
		],
		[
			112.374352010451,
			132.019406105021,
			0
		],
		[
			112.374352010451,
			134.134791901549,
			0
		],
		[
			112.374352010451,
			134.134791901549,
			0
		],
		[
			112.374352010451,
			132.019406105021,
			0
		],
		[
			112.374352010451,
			127.821995409646,
			0
		],
		[
			112.374352010451,
			121.608755489502,
			0
		],
		[
			112.374352010451,
			113.477672849740,
			0
		],
		[
			99.8367492974429,
			78.9983376729943,
			0
		],
		[
			99.8367492974429,
			92.0031307629969,
			0
		],
		[
			99.8367492974429,
			103.556979520861,
			0
		],
		[
			99.8367492974429,
			113.477672849740,
			0
		],
		[
			99.8367492974429,
			121.608755489502,
			0
		],
		[
			99.8367492974429,
			127.821995409646,
			0
		],
		[
			99.8367492974429,
			132.019406105021,
			0
		],
		[
			99.8367492974429,
			134.134791901549,
			0
		],
		[
			99.8367492974429,
			134.134791901549,
			0
		],
		[
			99.8367492974429,
			132.019406105021,
			0
		],
		[
			99.8367492974429,
			127.821995409646,
			0
		],
		[
			99.8367492974429,
			121.608755489502,
			0
		],
		[
			85.7246614084305,
			92.0031307629969,
			0
		],
		[
			85.7246614084305,
			103.556979520861,
			0
		],
		[
			85.7246614084305,
			113.477672849740,
			0
		],
		[
			85.7246614084305,
			121.608755489502,
			0
		],
		[
			85.7246614084305,
			127.821995409646,
			0
		],
		[
			85.7246614084305,
			132.019406105021,
			0
		],
		[
			85.7246614084305,
			134.134791901549,
			0
		],
		[
			85.7246614084305,
			134.134791901549,
			0
		],
		[
			85.7246614084305,
			132.019406105021,
			0
		],
		[
			85.7246614084305,
			127.821995409646,
			0
		],
		[
			70.2606443995767,
			103.556979520861,
			0
		],
		[
			70.2606443995767,
			113.477672849740,
			0
		],
		[
			70.2606443995767,
			121.608755489502,
			0
		],
		[
			70.2606443995767,
			127.821995409646,
			0
		],
		[
			70.2606443995767,
			132.019406105021,
			0
		],
		[
			70.2606443995767,
			134.134791901549,
			0
		],
		[
			70.2606443995767,
			134.134791901549,
			0
		],
		[
			70.2606443995767,
			132.019406105021,
			0
		],
		[
			53.6885750568670,
			113.477672849740,
			0
		],
		[
			53.6885750568670,
			121.608755489502,
			0
		],
		[
			53.6885750568670,
			127.821995409646,
			0
		],
		[
			53.6885750568670,
			132.019406105021,
			0
		],
		[
			53.6885750568670,
			134.134791901549,
			0
		],
		[
			53.6885750568670,
			134.134791901549,
			0
		],
		[
			36.2698048135104,
			121.608755489502,
			0
		],
		[
			36.2698048135104,
			127.821995409646,
			0
		],
		[
			36.2698048135104,
			132.019406105021,
			0
		],
		[
			36.2698048135104,
			134.134791901549,
			0
		]
	]
}