PVB[0,0,S,Sqrt[MT^2],Sqrt[MT^2]]
PVB[0,0,T,Sqrt[MT^2],Sqrt[MT^2]]
PVB[0,0,U,Sqrt[MT^2],Sqrt[MT^2]]
PVC[0,0,0,0,U,MH^2,Sqrt[MT^2],Sqrt[MT^2],Sqrt[MT^2]]
PVC[0,0,0,MH^2,S,0,Sqrt[MT^2],Sqrt[MT^2],Sqrt[MT^2]]
PVC[0,0,0,MH^2,T,0,Sqrt[MT^2],Sqrt[MT^2],Sqrt[MT^2]]
PVC[0,0,1,0,U,MH^2,Sqrt[MT^2],Sqrt[MT^2],Sqrt[MT^2]]
PVC[0,0,2,0,U,MH^2,Sqrt[MT^2],Sqrt[MT^2],Sqrt[MT^2]]
PVC[0,1,0,MH^2,S,0,Sqrt[MT^2],Sqrt[MT^2],Sqrt[MT^2]]
PVC[0,1,0,MH^2,T,0,Sqrt[MT^2],Sqrt[MT^2],Sqrt[MT^2]]
PVC[0,1,1,0,U,MH^2,Sqrt[MT^2],Sqrt[MT^2],Sqrt[MT^2]]
PVC[0,1,1,MH^2,S,0,Sqrt[MT^2],Sqrt[MT^2],Sqrt[MT^2]]
PVC[0,1,1,MH^2,T,0,Sqrt[MT^2],Sqrt[MT^2],Sqrt[MT^2]]
PVC[0,2,0,MH^2,S,0,Sqrt[MT^2],Sqrt[MT^2],Sqrt[MT^2]]
PVC[0,2,0,MH^2,T,0,Sqrt[MT^2],Sqrt[MT^2],Sqrt[MT^2]]
PVC[1,0,0,0,U,MH^2,Sqrt[MT^2],Sqrt[MT^2],Sqrt[MT^2]]
PVC[1,0,0,MH^2,S,0,Sqrt[MT^2],Sqrt[MT^2],Sqrt[MT^2]]
PVC[1,0,0,MH^2,T,0,Sqrt[MT^2],Sqrt[MT^2],Sqrt[MT^2]]
