{
	"title":"|Im(M)|^2(kT3,kT4) (S45→4MT^2) w\/ ϕ4=0.42",
	"vars":[
		"kT3",
		"kT4"
	],
	"data":[
		[
			33.7432124198155,
			54.4514581738455,
			0
		],
		[
			33.7432124198155,
			79.1181577180151,
			0
		],
		[
			33.7432124198155,
			101.402790089430,
			0
		],
		[
			33.7432124198155,
			120.743986835646,
			0
		],
		[
			33.7432124198155,
			136.502127281932,
			0
		],
		[
			33.7432124198155,
			147.941712473062,
			0
		],
		[
			33.7432124198155,
			154.230796598954,
			0
		],
		[
			33.7432124198155,
			154.468519971230,
			0
		],
		[
			33.7432124198155,
			147.755885938293,
			0
		],
		[
			33.7432124198155,
			133.326104586685,
			0
		],
		[
			33.7432124198155,
			110.743864914654,
			0
		],
		[
			33.7432124198155,
			80.1610532014880,
			0
		],
		[
			33.7432124198155,
			42.5765158565931,
			0
		],
		[
			48.7631566100218,
			54.7483179461515,
			0
		],
		[
			48.7631566100218,
			78.9252358493513,
			0
		],
		[
			48.7631566100218,
			100.361623789310,
			0
		],
		[
			48.7631566100218,
			118.585133996602,
			0
		],
		[
			48.7631566100218,
			133.075348991441,
			0
		],
		[
			48.7631566100218,
			143.245040354821,
			0
		],
		[
			48.7631566100218,
			148.435062819331,
			0
		],
		[
			48.7631566100218,
			147.930014555559,
			0
		],
		[
			48.7631566100218,
			141.005248474343,
			0
		],
		[
			48.7631566100218,
			127.018171183293,
			0
		],
		[
			48.7631566100218,
			105.554939638513,
			0
		],
		[
			48.7631566100218,
			76.6327288426308,
			0
		],
		[
			48.7631566100218,
			40.9326769873008,
			0
		],
		[
			61.6519168647837,
			55.4995863868120,
			0
		],
		[
			61.6519168647837,
			79.3803311778243,
			0
		],
		[
			61.6519168647837,
			100.131219953027,
			0
		],
		[
			61.6519168647837,
			117.363311969307,
			0
		],
		[
			61.6519168647837,
			130.667492498368,
			0
		],
		[
			61.6519168647837,
			139.593600530602,
			0
		],
		[
			61.6519168647837,
			143.641712120016,
			0
		],
		[
			61.6519168647837,
			142.269745371077,
			0
		],
		[
			61.6519168647837,
			134.924259693189,
			0
		],
		[
			61.6519168647837,
			121.103743425807,
			0
		],
		[
			61.6519168647837,
			100.464142701579,
			0
		],
		[
			61.6519168647837,
			72.9717954762386,
			0
		],
		[
			61.6519168647837,
			39.0950803274207,
			0
		],
		[
			71.8461925138347,
			56.7085026172550,
			0
		],
		[
			71.8461925138347,
			80.4856215530587,
			0
		],
		[
			71.8461925138347,
			100.710599954397,
			0
		],
		[
			71.8461925138347,
			117.075191116752,
			0
		],
		[
			71.8461925138347,
			129.278127883855,
			0
		],
		[
			71.8461925138347,
			137.000169064818,
			0
		],
		[
			71.8461925138347,
			139.891364925323,
			0
		],
		[
			71.8461925138347,
			137.572388074201,
			0
		],
		[
			71.8461925138347,
			129.653869621718,
			0
		],
		[
			71.8461925138347,
			115.779820065554,
			0
		],
		[
			71.8461925138347,
			95.7025107887992,
			0
		],
		[
			71.8461925138347,
			69.3948846980835,
			0
		],
		[
			71.8461925138347,
			37.1998068005234,
			0
		],
		[
			78.9004447937493,
			30.8106407820835,
			0
		],
		[
			78.9004447937493,
			58.3776211740167,
			0
		],
		[
			78.9004447937493,
			82.2450887414648,
			0
		],
		[
			78.9004447937493,
			102.102103549578,
			0
		],
		[
			78.9004447937493,
			117.719757956388,
			0
		],
		[
			78.9004447937493,
			128.904382346801,
			0
		],
		[
			78.9004447937493,
			135.465663937953,
			0
		],
		[
			78.9004447937493,
			137.198495870367,
			0
		],
		[
			78.9004447937493,
			133.878454214465,
			0
		],
		[
			78.9004447937493,
			125.272453203585,
			0
		],
		[
			78.9004447937493,
			111.167972967960,
			0
		],
		[
			78.9004447937493,
			91.4257769516020,
			0
		],
		[
			78.9004447937493,
			66.0612762727625,
			0
		],
		[
			78.9004447937493,
			35.3569461979226,
			0
		],
		[
			82.5063690298373,
			32.1207909549991,
			0
		],
		[
			82.5063690298373,
			60.5047669462281,
			0
		],
		[
			82.5063690298373,
			84.6611045736961,
			0
		],
		[
			82.5063690298373,
			104.309681252077,
			0
		],
		[
			82.5063690298373,
			119.299160013929,
			0
		],
		[
			82.5063690298373,
			129.545164387488,
			0
		],
		[
			82.5063690298373,
			134.987587584039,
			0
		],
		[
			82.5063690298373,
			135.564713478243,
			0
		],
		[
			82.5063690298373,
			131.202263249405,
			0
		],
		[
			82.5063690298373,
			121.816800977064,
			0
		],
		[
			82.5063690298373,
			107.334585172883,
			0
		],
		[
			82.5063690298373,
			87.7285268978429,
			0
		],
		[
			82.5063690298373,
			63.0768580960557,
			0
		],
		[
			82.5063690298373,
			33.6464622278974,
			0
		],
		[
			82.5063690298373,
			33.6464622278974,
			0
		],
		[
			82.5063690298373,
			63.0768580960557,
			0
		],
		[
			82.5063690298373,
			87.7285268978429,
			0
		],
		[
			82.5063690298373,
			107.334585172883,
			0
		],
		[
			82.5063690298373,
			121.816800977064,
			0
		],
		[
			82.5063690298373,
			131.202263249405,
			0
		],
		[
			82.5063690298373,
			135.564713478243,
			0
		],
		[
			82.5063690298373,
			134.987587584039,
			0
		],
		[
			82.5063690298373,
			129.545164387488,
			0
		],
		[
			82.5063690298373,
			119.299160013929,
			0
		],
		[
			82.5063690298373,
			104.309681252077,
			0
		],
		[
			82.5063690298373,
			84.6611045736961,
			0
		],
		[
			82.5063690298373,
			60.5047669462281,
			0
		],
		[
			82.5063690298373,
			32.1207909549991,
			0
		],
		[
			78.9004447937493,
			35.3569461979226,
			0
		],
		[
			78.9004447937493,
			66.0612762727625,
			0
		],
		[
			78.9004447937493,
			91.4257769516020,
			0
		],
		[
			78.9004447937493,
			111.167972967960,
			0
		],
		[
			78.9004447937493,
			125.272453203585,
			0
		],
		[
			78.9004447937493,
			133.878454214465,
			0
		],
		[
			78.9004447937493,
			137.198495870367,
			0
		],
		[
			78.9004447937493,
			135.465663937953,
			0
		],
		[
			78.9004447937493,
			128.904382346801,
			0
		],
		[
			78.9004447937493,
			117.719757956388,
			0
		],
		[
			78.9004447937493,
			102.102103549578,
			0
		],
		[
			78.9004447937493,
			82.2450887414648,
			0
		],
		[
			78.9004447937493,
			58.3776211740167,
			0
		],
		[
			78.9004447937493,
			30.8106407820835,
			0
		],
		[
			71.8461925138347,
			37.1998068005234,
			0
		],
		[
			71.8461925138347,
			69.3948846980835,
			0
		],
		[
			71.8461925138347,
			95.7025107887992,
			0
		],
		[
			71.8461925138347,
			115.779820065554,
			0
		],
		[
			71.8461925138347,
			129.653869621718,
			0
		],
		[
			71.8461925138347,
			137.572388074201,
			0
		],
		[
			71.8461925138347,
			139.891364925323,
			0
		],
		[
			71.8461925138347,
			137.000169064818,
			0
		],
		[
			71.8461925138347,
			129.278127883855,
			0
		],
		[
			71.8461925138347,
			117.075191116752,
			0
		],
		[
			71.8461925138347,
			100.710599954397,
			0
		],
		[
			71.8461925138347,
			80.4856215530587,
			0
		],
		[
			71.8461925138347,
			56.7085026172550,
			0
		],
		[
			61.6519168647837,
			39.0950803274207,
			0
		],
		[
			61.6519168647837,
			72.9717954762386,
			0
		],
		[
			61.6519168647837,
			100.464142701579,
			0
		],
		[
			61.6519168647837,
			121.103743425807,
			0
		],
		[
			61.6519168647837,
			134.924259693189,
			0
		],
		[
			61.6519168647837,
			142.269745371077,
			0
		],
		[
			61.6519168647837,
			143.641712120016,
			0
		],
		[
			61.6519168647837,
			139.593600530602,
			0
		],
		[
			61.6519168647837,
			130.667492498368,
			0
		],
		[
			61.6519168647837,
			117.363311969307,
			0
		],
		[
			61.6519168647837,
			100.131219953027,
			0
		],
		[
			61.6519168647837,
			79.3803311778243,
			0
		],
		[
			61.6519168647837,
			55.4995863868120,
			0
		],
		[
			48.7631566100218,
			40.9326769873008,
			0
		],
		[
			48.7631566100218,
			76.6327288426308,
			0
		],
		[
			48.7631566100218,
			105.554939638513,
			0
		],
		[
			48.7631566100218,
			127.018171183293,
			0
		],
		[
			48.7631566100218,
			141.005248474343,
			0
		],
		[
			48.7631566100218,
			147.930014555559,
			0
		],
		[
			48.7631566100218,
			148.435062819331,
			0
		],
		[
			48.7631566100218,
			143.245040354821,
			0
		],
		[
			48.7631566100218,
			133.075348991441,
			0
		],
		[
			48.7631566100218,
			118.585133996602,
			0
		],
		[
			48.7631566100218,
			100.361623789310,
			0
		],
		[
			48.7631566100218,
			78.9252358493513,
			0
		],
		[
			48.7631566100218,
			54.7483179461515,
			0
		],
		[
			33.7432124198155,
			42.5765158565931,
			0
		],
		[
			33.7432124198155,
			80.1610532014880,
			0
		],
		[
			33.7432124198155,
			110.743864914654,
			0
		],
		[
			33.7432124198155,
			133.326104586685,
			0
		],
		[
			33.7432124198155,
			147.755885938293,
			0
		],
		[
			33.7432124198155,
			154.468519971230,
			0
		],
		[
			33.7432124198155,
			154.230796598954,
			0
		],
		[
			33.7432124198155,
			147.941712473062,
			0
		],
		[
			33.7432124198155,
			136.502127281932,
			0
		],
		[
			33.7432124198155,
			120.743986835646,
			0
		],
		[
			33.7432124198155,
			101.402790089430,
			0
		],
		[
			33.7432124198155,
			79.1181577180151,
			0
		],
		[
			33.7432124198155,
			54.4514581738455,
			0
		]
	]
}