{
	"title":"|Im(M)|^2(kT3,kT4) (S35→4MT^2) w\/ E3=173 GeV",
	"vars":[
		"kT3",
		"kT4"
	],
	"data":[
		[
			44.3769702058372,
			121.608755489502,
			0
		],
		[
			44.3769702058372,
			127.821995409646,
			0
		],
		[
			44.3769702058372,
			132.019406105021,
			0
		],
		[
			44.3769702058372,
			134.134791901549,
			0
		],
		[
			44.3769702058372,
			134.134791901549,
			0
		],
		[
			44.3769702058372,
			132.019406105021,
			0
		],
		[
			58.0748235515730,
			113.477672849740,
			0
		],
		[
			58.0748235515730,
			121.608755489502,
			0
		],
		[
			58.0748235515730,
			127.821995409646,
			0
		],
		[
			58.0748235515730,
			132.019406105021,
			0
		],
		[
			58.0748235515730,
			134.134791901549,
			0
		],
		[
			58.0748235515730,
			134.134791901549,
			0
		],
		[
			58.0748235515730,
			132.019406105021,
			0
		],
		[
			58.0748235515730,
			127.821995409646,
			0
		],
		[
			70.8568022376825,
			103.556979520861,
			0
		],
		[
			70.8568022376825,
			113.477672849740,
			0
		],
		[
			70.8568022376825,
			121.608755489502,
			0
		],
		[
			70.8568022376825,
			127.821995409646,
			0
		],
		[
			70.8568022376825,
			132.019406105021,
			0
		],
		[
			70.8568022376825,
			134.134791901549,
			0
		],
		[
			70.8568022376825,
			134.134791901549,
			0
		],
		[
			70.8568022376825,
			132.019406105021,
			0
		],
		[
			70.8568022376825,
			127.821995409646,
			0
		],
		[
			70.8568022376825,
			121.608755489502,
			0
		],
		[
			82.5213268247018,
			92.0031307629969,
			0
		],
		[
			82.5213268247018,
			103.556979520861,
			0
		],
		[
			82.5213268247018,
			113.477672849740,
			0
		],
		[
			82.5213268247018,
			121.608755489502,
			0
		],
		[
			82.5213268247018,
			127.821995409646,
			0
		],
		[
			82.5213268247018,
			132.019406105021,
			0
		],
		[
			82.5213268247018,
			134.134791901549,
			0
		],
		[
			82.5213268247018,
			134.134791901549,
			0
		],
		[
			82.5213268247018,
			132.019406105021,
			0
		],
		[
			82.5213268247018,
			127.821995409646,
			0
		],
		[
			82.5213268247018,
			121.608755489502,
			0
		],
		[
			82.5213268247018,
			113.477672849740,
			0
		],
		[
			92.8844407918444,
			78.9983376729943,
			0
		],
		[
			92.8844407918444,
			92.0031307629969,
			0
		],
		[
			92.8844407918444,
			103.556979520861,
			0
		],
		[
			92.8844407918444,
			113.477672849740,
			0
		],
		[
			92.8844407918444,
			121.608755489502,
			0
		],
		[
			92.8844407918444,
			127.821995409646,
			0
		],
		[
			92.8844407918444,
			132.019406105021,
			0
		],
		[
			92.8844407918444,
			134.134791901549,
			0
		],
		[
			92.8844407918444,
			134.134791901549,
			0
		],
		[
			92.8844407918444,
			132.019406105021,
			0
		],
		[
			92.8844407918444,
			127.821995409646,
			0
		],
		[
			92.8844407918444,
			121.608755489502,
			0
		],
		[
			92.8844407918444,
			113.477672849740,
			0
		],
		[
			92.8844407918444,
			103.556979520861,
			0
		],
		[
			101.782711641224,
			64.7476936065691,
			0
		],
		[
			101.782711641224,
			78.9983376729943,
			0
		],
		[
			101.782711641224,
			92.0031307629969,
			0
		],
		[
			101.782711641224,
			103.556979520861,
			0
		],
		[
			101.782711641224,
			113.477672849740,
			0
		],
		[
			101.782711641224,
			121.608755489502,
			0
		],
		[
			101.782711641224,
			127.821995409646,
			0
		],
		[
			101.782711641224,
			132.019406105021,
			0
		],
		[
			101.782711641224,
			134.134791901549,
			0
		],
		[
			101.782711641224,
			134.134791901549,
			0
		],
		[
			101.782711641224,
			132.019406105021,
			0
		],
		[
			101.782711641224,
			127.821995409646,
			0
		],
		[
			101.782711641224,
			121.608755489502,
			0
		],
		[
			101.782711641224,
			113.477672849740,
			0
		],
		[
			101.782711641224,
			103.556979520861,
			0
		],
		[
			101.782711641224,
			92.0031307629969,
			0
		],
		[
			109.075808325977,
			49.4759397335709,
			0
		],
		[
			109.075808325977,
			64.7476936065691,
			0
		],
		[
			109.075808325977,
			78.9983376729943,
			0
		],
		[
			109.075808325977,
			92.0031307629969,
			0
		],
		[
			109.075808325977,
			103.556979520861,
			0
		],
		[
			109.075808325977,
			113.477672849740,
			0
		],
		[
			109.075808325977,
			121.608755489502,
			0
		],
		[
			109.075808325977,
			127.821995409646,
			0
		],
		[
			109.075808325977,
			132.019406105021,
			0
		],
		[
			109.075808325977,
			134.134791901549,
			0
		],
		[
			109.075808325977,
			134.134791901549,
			0
		],
		[
			109.075808325977,
			132.019406105021,
			0
		],
		[
			109.075808325977,
			127.821995409646,
			0
		],
		[
			109.075808325977,
			121.608755489502,
			0
		],
		[
			109.075808325977,
			113.477672849740,
			0
		],
		[
			109.075808325977,
			103.556979520861,
			0
		],
		[
			109.075808325977,
			92.0031307629969,
			0
		],
		[
			109.075808325977,
			78.9983376729943,
			0
		],
		[
			114.648714354700,
			33.4239207354805,
			0
		],
		[
			114.648714354700,
			49.4759397335709,
			0
		],
		[
			114.648714354700,
			64.7476936065691,
			0
		],
		[
			114.648714354700,
			78.9983376729943,
			0
		],
		[
			114.648714354700,
			92.0031307629969,
			0
		],
		[
			114.648714354700,
			103.556979520861,
			0
		],
		[
			114.648714354700,
			113.477672849740,
			0
		],
		[
			114.648714354700,
			121.608755489502,
			0
		],
		[
			114.648714354700,
			127.821995409646,
			0
		],
		[
			114.648714354700,
			132.019406105021,
			0
		],
		[
			114.648714354700,
			134.134791901549,
			0
		],
		[
			114.648714354700,
			134.134791901549,
			0
		],
		[
			114.648714354700,
			132.019406105021,
			0
		],
		[
			114.648714354700,
			127.821995409646,
			0
		],
		[
			114.648714354700,
			121.608755489502,
			0
		],
		[
			114.648714354700,
			113.477672849740,
			0
		],
		[
			114.648714354700,
			103.556979520861,
			0
		],
		[
			114.648714354700,
			92.0031307629969,
			0
		],
		[
			114.648714354700,
			78.9983376729943,
			0
		],
		[
			114.648714354700,
			64.7476936065691,
			0
		],
		[
			118.413541670227,
			33.4239207354805,
			0
		],
		[
			118.413541670227,
			49.4759397335709,
			0
		],
		[
			118.413541670227,
			64.7476936065691,
			0
		],
		[
			118.413541670227,
			78.9983376729943,
			0
		],
		[
			118.413541670227,
			92.0031307629969,
			0
		],
		[
			118.413541670227,
			103.556979520861,
			0
		],
		[
			118.413541670227,
			113.477672849740,
			0
		],
		[
			118.413541670227,
			121.608755489502,
			0
		],
		[
			118.413541670227,
			127.821995409646,
			0
		],
		[
			118.413541670227,
			132.019406105021,
			0
		],
		[
			118.413541670227,
			134.134791901549,
			0
		],
		[
			118.413541670227,
			134.134791901549,
			0
		],
		[
			118.413541670227,
			132.019406105021,
			0
		],
		[
			118.413541670227,
			127.821995409646,
			0
		],
		[
			118.413541670227,
			121.608755489502,
			0
		],
		[
			118.413541670227,
			113.477672849740,
			0
		],
		[
			118.413541670227,
			103.556979520861,
			0
		],
		[
			118.413541670227,
			92.0031307629969,
			0
		],
		[
			118.413541670227,
			78.9983376729943,
			0
		],
		[
			118.413541670227,
			64.7476936065691,
			0
		],
		[
			118.413541670227,
			49.4759397335709,
			0
		],
		[
			120.310916696793,
			33.4239207354805,
			0
		],
		[
			120.310916696793,
			49.4759397335709,
			0
		],
		[
			120.310916696793,
			64.7476936065691,
			0
		],
		[
			120.310916696793,
			78.9983376729943,
			0
		],
		[
			120.310916696793,
			92.0031307629969,
			0
		],
		[
			120.310916696793,
			103.556979520861,
			0
		],
		[
			120.310916696793,
			113.477672849740,
			0
		],
		[
			120.310916696793,
			121.608755489502,
			0
		],
		[
			120.310916696793,
			127.821995409646,
			0
		],
		[
			120.310916696793,
			132.019406105021,
			0
		],
		[
			120.310916696793,
			134.134791901549,
			0
		],
		[
			120.310916696793,
			134.134791901549,
			0
		],
		[
			120.310916696793,
			132.019406105021,
			0
		],
		[
			120.310916696793,
			127.821995409646,
			0
		],
		[
			120.310916696793,
			121.608755489502,
			0
		],
		[
			120.310916696793,
			113.477672849740,
			0
		],
		[
			120.310916696793,
			103.556979520861,
			0
		],
		[
			120.310916696793,
			92.0031307629969,
			0
		],
		[
			120.310916696793,
			78.9983376729943,
			0
		],
		[
			120.310916696793,
			64.7476936065691,
			0
		],
		[
			120.310916696793,
			49.4759397335709,
			0
		],
		[
			120.310916696793,
			33.4239207354805,
			0
		],
		[
			120.310916696793,
			33.4239207354805,
			0
		],
		[
			120.310916696793,
			49.4759397335709,
			0
		],
		[
			120.310916696793,
			64.7476936065691,
			0
		],
		[
			120.310916696793,
			78.9983376729943,
			0
		],
		[
			120.310916696793,
			92.0031307629969,
			0
		],
		[
			120.310916696793,
			103.556979520861,
			0
		],
		[
			120.310916696793,
			113.477672849740,
			0
		],
		[
			120.310916696793,
			121.608755489502,
			0
		],
		[
			120.310916696793,
			127.821995409646,
			0
		],
		[
			120.310916696793,
			132.019406105021,
			0
		],
		[
			120.310916696793,
			134.134791901549,
			0
		],
		[
			120.310916696793,
			134.134791901549,
			0
		],
		[
			120.310916696793,
			132.019406105021,
			0
		],
		[
			120.310916696793,
			127.821995409646,
			0
		],
		[
			120.310916696793,
			121.608755489502,
			0
		],
		[
			120.310916696793,
			113.477672849740,
			0
		],
		[
			120.310916696793,
			103.556979520861,
			0
		],
		[
			120.310916696793,
			92.0031307629969,
			0
		],
		[
			120.310916696793,
			78.9983376729943,
			0
		],
		[
			120.310916696793,
			64.7476936065691,
			0
		],
		[
			120.310916696793,
			49.4759397335709,
			0
		],
		[
			120.310916696793,
			33.4239207354805,
			0
		],
		[
			118.413541670227,
			49.4759397335709,
			0
		],
		[
			118.413541670227,
			64.7476936065691,
			0
		],
		[
			118.413541670227,
			78.9983376729943,
			0
		],
		[
			118.413541670227,
			92.0031307629969,
			0
		],
		[
			118.413541670227,
			103.556979520861,
			0
		],
		[
			118.413541670227,
			113.477672849740,
			0
		],
		[
			118.413541670227,
			121.608755489502,
			0
		],
		[
			118.413541670227,
			127.821995409646,
			0
		],
		[
			118.413541670227,
			132.019406105021,
			0
		],
		[
			118.413541670227,
			134.134791901549,
			0
		],
		[
			118.413541670227,
			134.134791901549,
			0
		],
		[
			118.413541670227,
			132.019406105021,
			0
		],
		[
			118.413541670227,
			127.821995409646,
			0
		],
		[
			118.413541670227,
			121.608755489502,
			0
		],
		[
			118.413541670227,
			113.477672849740,
			0
		],
		[
			118.413541670227,
			103.556979520861,
			0
		],
		[
			118.413541670227,
			92.0031307629969,
			0
		],
		[
			118.413541670227,
			78.9983376729943,
			0
		],
		[
			118.413541670227,
			64.7476936065691,
			0
		],
		[
			118.413541670227,
			49.4759397335709,
			0
		],
		[
			118.413541670227,
			33.4239207354805,
			0
		],
		[
			114.648714354700,
			64.7476936065691,
			0
		],
		[
			114.648714354700,
			78.9983376729943,
			0
		],
		[
			114.648714354700,
			92.0031307629969,
			0
		],
		[
			114.648714354700,
			103.556979520861,
			0
		],
		[
			114.648714354700,
			113.477672849740,
			0
		],
		[
			114.648714354700,
			121.608755489502,
			0
		],
		[
			114.648714354700,
			127.821995409646,
			0
		],
		[
			114.648714354700,
			132.019406105021,
			0
		],
		[
			114.648714354700,
			134.134791901549,
			0
		],
		[
			114.648714354700,
			134.134791901549,
			0
		],
		[
			114.648714354700,
			132.019406105021,
			0
		],
		[
			114.648714354700,
			127.821995409646,
			0
		],
		[
			114.648714354700,
			121.608755489502,
			0
		],
		[
			114.648714354700,
			113.477672849740,
			0
		],
		[
			114.648714354700,
			103.556979520861,
			0
		],
		[
			114.648714354700,
			92.0031307629969,
			0
		],
		[
			114.648714354700,
			78.9983376729943,
			0
		],
		[
			114.648714354700,
			64.7476936065691,
			0
		],
		[
			114.648714354700,
			49.4759397335709,
			0
		],
		[
			114.648714354700,
			33.4239207354805,
			0
		],
		[
			109.075808325977,
			78.9983376729943,
			0
		],
		[
			109.075808325977,
			92.0031307629969,
			0
		],
		[
			109.075808325977,
			103.556979520861,
			0
		],
		[
			109.075808325977,
			113.477672849740,
			0
		],
		[
			109.075808325977,
			121.608755489502,
			0
		],
		[
			109.075808325977,
			127.821995409646,
			0
		],
		[
			109.075808325977,
			132.019406105021,
			0
		],
		[
			109.075808325977,
			134.134791901549,
			0
		],
		[
			109.075808325977,
			134.134791901549,
			0
		],
		[
			109.075808325977,
			132.019406105021,
			0
		],
		[
			109.075808325977,
			127.821995409646,
			0
		],
		[
			109.075808325977,
			121.608755489502,
			0
		],
		[
			109.075808325977,
			113.477672849740,
			0
		],
		[
			109.075808325977,
			103.556979520861,
			0
		],
		[
			109.075808325977,
			92.0031307629969,
			0
		],
		[
			109.075808325977,
			78.9983376729943,
			0
		],
		[
			109.075808325977,
			64.7476936065691,
			0
		],
		[
			109.075808325977,
			49.4759397335709,
			0
		],
		[
			101.782711641224,
			92.0031307629969,
			0
		],
		[
			101.782711641224,
			103.556979520861,
			0
		],
		[
			101.782711641224,
			113.477672849740,
			0
		],
		[
			101.782711641224,
			121.608755489502,
			0
		],
		[
			101.782711641224,
			127.821995409646,
			0
		],
		[
			101.782711641224,
			132.019406105021,
			0
		],
		[
			101.782711641224,
			134.134791901549,
			0
		],
		[
			101.782711641224,
			134.134791901549,
			0
		],
		[
			101.782711641224,
			132.019406105021,
			0
		],
		[
			101.782711641224,
			127.821995409646,
			0
		],
		[
			101.782711641224,
			121.608755489502,
			0
		],
		[
			101.782711641224,
			113.477672849740,
			0
		],
		[
			101.782711641224,
			103.556979520861,
			0
		],
		[
			101.782711641224,
			92.0031307629969,
			0
		],
		[
			101.782711641224,
			78.9983376729943,
			0
		],
		[
			101.782711641224,
			64.7476936065691,
			0
		],
		[
			92.8844407918444,
			103.556979520861,
			0
		],
		[
			92.8844407918444,
			113.477672849740,
			0
		],
		[
			92.8844407918444,
			121.608755489502,
			0
		],
		[
			92.8844407918444,
			127.821995409646,
			0
		],
		[
			92.8844407918444,
			132.019406105021,
			0
		],
		[
			92.8844407918444,
			134.134791901549,
			0
		],
		[
			92.8844407918444,
			134.134791901549,
			0
		],
		[
			92.8844407918444,
			132.019406105021,
			0
		],
		[
			92.8844407918444,
			127.821995409646,
			0
		],
		[
			92.8844407918444,
			121.608755489502,
			0
		],
		[
			92.8844407918444,
			113.477672849740,
			0
		],
		[
			92.8844407918444,
			103.556979520861,
			0
		],
		[
			92.8844407918444,
			92.0031307629969,
			0
		],
		[
			92.8844407918444,
			78.9983376729943,
			0
		],
		[
			82.5213268247018,
			113.477672849740,
			0
		],
		[
			82.5213268247018,
			121.608755489502,
			0
		],
		[
			82.5213268247018,
			127.821995409646,
			0
		],
		[
			82.5213268247018,
			132.019406105021,
			0
		],
		[
			82.5213268247018,
			134.134791901549,
			0
		],
		[
			82.5213268247018,
			134.134791901549,
			0
		],
		[
			82.5213268247018,
			132.019406105021,
			0
		],
		[
			82.5213268247018,
			127.821995409646,
			0
		],
		[
			82.5213268247018,
			121.608755489502,
			0
		],
		[
			82.5213268247018,
			113.477672849740,
			0
		],
		[
			82.5213268247018,
			103.556979520861,
			0
		],
		[
			82.5213268247018,
			92.0031307629969,
			0
		],
		[
			70.8568022376825,
			121.608755489502,
			0
		],
		[
			70.8568022376825,
			127.821995409646,
			0
		],
		[
			70.8568022376825,
			132.019406105021,
			0
		],
		[
			70.8568022376825,
			134.134791901549,
			0
		],
		[
			70.8568022376825,
			134.134791901549,
			0
		],
		[
			70.8568022376825,
			132.019406105021,
			0
		],
		[
			70.8568022376825,
			127.821995409646,
			0
		],
		[
			70.8568022376825,
			121.608755489502,
			0
		],
		[
			70.8568022376825,
			113.477672849740,
			0
		],
		[
			70.8568022376825,
			103.556979520861,
			0
		],
		[
			58.0748235515730,
			127.821995409646,
			0
		],
		[
			58.0748235515730,
			132.019406105021,
			0
		],
		[
			58.0748235515730,
			134.134791901549,
			0
		],
		[
			58.0748235515730,
			134.134791901549,
			0
		],
		[
			58.0748235515730,
			132.019406105021,
			0
		],
		[
			58.0748235515730,
			127.821995409646,
			0
		],
		[
			58.0748235515730,
			121.608755489502,
			0
		],
		[
			58.0748235515730,
			113.477672849740,
			0
		],
		[
			44.3769702058372,
			132.019406105021,
			0
		],
		[
			44.3769702058372,
			134.134791901549,
			0
		],
		[
			44.3769702058372,
			134.134791901549,
			0
		],
		[
			44.3769702058372,
			132.019406105021,
			0
		],
		[
			44.3769702058372,
			127.821995409646,
			0
		],
		[
			44.3769702058372,
			121.608755489502,
			0
		]
	]
}