{
	"title":"|Im(M)|^2(kT4,kT5) (S34→4MT^2) w\/ E3=232 GeV",
	"vars":[
		"kT4",
		"kT5"
	],
	"data":[
		[
			102.299244311913,
			83.0973518706818,
			0
		],
		[
			90.8857210294435,
			96.5670353826772,
			0
		],
		[
			78.0388756338411,
			105.826189884815,
			0
		],
		[
			63.9613105513284,
			112.248475405133,
			0
		],
		[
			112.099447400978,
			75.0433254866321,
			0
		],
		[
			102.299244311913,
			91.9647349629039,
			0
		],
		[
			90.8857210294435,
			103.403262435417,
			0
		],
		[
			78.0388756338411,
			111.374120833144,
			0
		],
		[
			63.9613105513283,
			116.912480208367,
			0
		],
		[
			48.8750373927863,
			120.662235162813,
			0
		],
		[
			120.131775239566,
			68.5468201171936,
			0
		],
		[
			112.099447400978,
			88.6756250072351,
			0
		],
		[
			102.299244311913,
			102.009930016628,
			0
		],
		[
			90.8857210294435,
			111.289855652980,
			0
		],
		[
			78.0388756338411,
			117.788534585213,
			0
		],
		[
			63.9613105513283,
			122.273474671402,
			0
		],
		[
			48.8750373927863,
			125.269802497767,
			0
		],
		[
			33.0179756980279,
			127.152343538107,
			0
		],
		[
			126.269553219381,
			64.5389869200599,
			0
		],
		[
			120.131775239566,
			87.0636932491137,
			0
		],
		[
			112.099447400978,
			101.776910151373,
			0
		],
		[
			102.299244311913,
			112.002726339514,
			0
		],
		[
			90.8857210294435,
			119.175129369379,
			0
		],
		[
			78.0388756338411,
			124.138885276499,
			0
		],
		[
			63.9613105513283,
			127.479220805988,
			0
		],
		[
			48.8750373927863,
			129.634112170693,
			0
		],
		[
			33.0179756980279,
			130.935073832655,
			0
		],
		[
			130.415984915152,
			63.7562400061343,
			0
		],
		[
			126.269553219381,
			87.3239521722353,
			0
		],
		[
			120.131775239565,
			102.726624008596,
			0
		],
		[
			112.099447400978,
			113.453643461147,
			0
		],
		[
			102.299244311913,
			120.969419054007,
			0
		],
		[
			90.8857210294435,
			126.132761565652,
			0
		],
		[
			78.0388756338411,
			129.549210313468,
			0
		],
		[
			63.9613105513284,
			131.691044727674,
			0
		],
		[
			48.8750373927863,
			132.941074773189,
			0
		],
		[
			33.0179756980279,
			133.604976888064,
			0
		],
		[
			132.505678622077,
			66.3604430098391,
			0
		],
		[
			130.415984915152,
			89.4241160272473,
			0
		],
		[
			126.269553219381,
			104.768706185926,
			0
		],
		[
			120.131775239566,
			115.525899406913,
			0
		],
		[
			112.099447400978,
			123.043615049664,
			0
		],
		[
			102.299244311913,
			128.126812330617,
			0
		],
		[
			90.8857210294435,
			131.359169713315,
			0
		],
		[
			78.0388756338411,
			133.216096105638,
			0
		],
		[
			63.9613105513283,
			134.107256454340,
			0
		],
		[
			48.8750373927863,
			134.388385948592,
			0
		],
		[
			33.0179756980279,
			134.357353859357,
			0
		],
		[
			132.505678622077,
			71.8369013464484,
			0
		],
		[
			132.505678622077,
			93.1147815324699,
			0
		],
		[
			130.415984915152,
			107.717607395295,
			0
		],
		[
			126.269553219381,
			118.060613753235,
			0
		],
		[
			120.131775239566,
			125.256943806100,
			0
		],
		[
			112.099447400978,
			129.998558639226,
			0
		],
		[
			102.299244311913,
			132.808058075634,
			0
		],
		[
			90.8857210294435,
			134.132805165060,
			0
		],
		[
			78.0388756338411,
			134.382685192083,
			0
		],
		[
			63.9613105513284,
			133.941576694720,
			0
		],
		[
			48.8750373927863,
			133.163341751754,
			0
		],
		[
			130.415984915152,
			79.2956467758877,
			0
		],
		[
			132.505678622077,
			98.0010828490409,
			0
		],
		[
			132.505678622077,
			111.324710046494,
			0
		],
		[
			130.415984915152,
			120.874944539792,
			0
		],
		[
			126.269553219381,
			127.466784282210,
			0
		],
		[
			120.131775239566,
			131.637955698751,
			0
		],
		[
			112.099447400978,
			133.817767291382,
			0
		],
		[
			102.299244311913,
			134.396336967617,
			0
		],
		[
			90.8857210294435,
			133.755494684324,
			0
		],
		[
			78.0388756338411,
			132.280558635256,
			0
		],
		[
			63.9613105513284,
			130.359268624938,
			0
		],
		[
			126.269553219381,
			87.8331154100643,
			0
		],
		[
			130.415984915152,
			103.631773194304,
			0
		],
		[
			132.505678622077,
			115.313315660145,
			0
		],
		[
			132.505678622077,
			123.779289125024,
			0
		],
		[
			130.415984915152,
			129.537937601385,
			0
		],
		[
			126.269553219381,
			132.952275002891,
			0
		],
		[
			120.131775239566,
			134.335249977029,
			0
		],
		[
			112.099447400978,
			133.993953901435,
			0
		],
		[
			102.299244311913,
			132.252795976318,
			0
		],
		[
			90.8857210294435,
			129.465918264874,
			0
		],
		[
			78.0388756338411,
			126.021897440448,
			0
		],
		[
			120.131775239565,
			96.7029236608751,
			0
		],
		[
			126.269553219381,
			109.567431160938,
			0
		],
		[
			130.415984915152,
			119.407672730226,
			0
		],
		[
			132.505678622077,
			126.591239845566,
			0
		],
		[
			132.505678622077,
			131.349702676296,
			0
		],
		[
			130.415984915152,
			133.869498394981,
			0
		],
		[
			126.269553219381,
			134.333744211318,
			0
		],
		[
			120.131775239566,
			132.945131781696,
			0
		],
		[
			112.099447400978,
			129.940877560249,
			0
		],
		[
			102.299244311913,
			125.604420028701,
			0
		],
		[
			90.8857210294435,
			120.275878981279,
			0
		],
		[
			112.099447400978,
			105.334473581855,
			0
		],
		[
			120.131775239565,
			115.417201049436,
			0
		],
		[
			126.269553219381,
			123.352748392138,
			0
		],
		[
			130.415984915152,
			129.145670532094,
			0
		],
		[
			132.505678622077,
			132.800915009831,
			0
		],
		[
			132.505678622077,
			134.340534783252,
			0
		],
		[
			130.415984915152,
			133.813327455444,
			0
		],
		[
			126.269553219381,
			131.301379214591,
			0
		],
		[
			120.131775239566,
			126.925604688089,
			0
		],
		[
			112.099447400978,
			120.851865809125,
			0
		],
		[
			102.299244311913,
			113.299463421062,
			0
		],
		[
			102.299244311913,
			113.299463421062,
			0
		],
		[
			112.099447400978,
			120.851865809125,
			0
		],
		[
			120.131775239566,
			126.925604688089,
			0
		],
		[
			126.269553219381,
			131.301379214591,
			0
		],
		[
			130.415984915152,
			133.813327455444,
			0
		],
		[
			132.505678622077,
			134.340534783252,
			0
		],
		[
			132.505678622077,
			132.800915009831,
			0
		],
		[
			130.415984915152,
			129.145670532094,
			0
		],
		[
			126.269553219381,
			123.352748392138,
			0
		],
		[
			120.131775239565,
			115.417201049436,
			0
		],
		[
			112.099447400978,
			105.334473581855,
			0
		],
		[
			90.8857210294435,
			120.275878981279,
			0
		],
		[
			102.299244311913,
			125.604420028701,
			0
		],
		[
			112.099447400978,
			129.940877560249,
			0
		],
		[
			120.131775239566,
			132.945131781696,
			0
		],
		[
			126.269553219381,
			134.333744211318,
			0
		],
		[
			130.415984915152,
			133.869498394981,
			0
		],
		[
			132.505678622077,
			131.349702676296,
			0
		],
		[
			132.505678622077,
			126.591239845566,
			0
		],
		[
			130.415984915152,
			119.407672730226,
			0
		],
		[
			126.269553219381,
			109.567431160938,
			0
		],
		[
			120.131775239565,
			96.7029236608751,
			0
		],
		[
			78.0388756338411,
			126.021897440448,
			0
		],
		[
			90.8857210294435,
			129.465918264874,
			0
		],
		[
			102.299244311913,
			132.252795976318,
			0
		],
		[
			112.099447400978,
			133.993953901435,
			0
		],
		[
			120.131775239566,
			134.335249977029,
			0
		],
		[
			126.269553219381,
			132.952275002891,
			0
		],
		[
			130.415984915152,
			129.537937601385,
			0
		],
		[
			132.505678622077,
			123.779289125024,
			0
		],
		[
			132.505678622077,
			115.313315660145,
			0
		],
		[
			130.415984915152,
			103.631773194304,
			0
		],
		[
			126.269553219381,
			87.8331154100643,
			0
		],
		[
			63.9613105513284,
			130.359268624938,
			0
		],
		[
			78.0388756338411,
			132.280558635256,
			0
		],
		[
			90.8857210294435,
			133.755494684324,
			0
		],
		[
			102.299244311913,
			134.396336967617,
			0
		],
		[
			112.099447400978,
			133.817767291382,
			0
		],
		[
			120.131775239566,
			131.637955698751,
			0
		],
		[
			126.269553219381,
			127.466784282210,
			0
		],
		[
			130.415984915152,
			120.874944539792,
			0
		],
		[
			132.505678622077,
			111.324710046494,
			0
		],
		[
			132.505678622077,
			98.0010828490410,
			0
		],
		[
			130.415984915152,
			79.2956467758876,
			0
		],
		[
			48.8750373927863,
			133.163341751754,
			0
		],
		[
			63.9613105513284,
			133.941576694720,
			0
		],
		[
			78.0388756338411,
			134.382685192083,
			0
		],
		[
			90.8857210294435,
			134.132805165060,
			0
		],
		[
			102.299244311913,
			132.808058075634,
			0
		],
		[
			112.099447400978,
			129.998558639226,
			0
		],
		[
			120.131775239566,
			125.256943806100,
			0
		],
		[
			126.269553219381,
			118.060613753235,
			0
		],
		[
			130.415984915152,
			107.717607395295,
			0
		],
		[
			132.505678622077,
			93.1147815324699,
			0
		],
		[
			132.505678622077,
			71.8369013464484,
			0
		],
		[
			33.0179756980279,
			134.357353859357,
			0
		],
		[
			48.8750373927863,
			134.388385948592,
			0
		],
		[
			63.9613105513283,
			134.107256454340,
			0
		],
		[
			78.0388756338411,
			133.216096105638,
			0
		],
		[
			90.8857210294435,
			131.359169713315,
			0
		],
		[
			102.299244311913,
			128.126812330617,
			0
		],
		[
			112.099447400978,
			123.043615049664,
			0
		],
		[
			120.131775239566,
			115.525899406913,
			0
		],
		[
			126.269553219381,
			104.768706185926,
			0
		],
		[
			130.415984915152,
			89.4241160272473,
			0
		],
		[
			132.505678622077,
			66.3604430098391,
			0
		],
		[
			33.0179756980279,
			133.604976888064,
			0
		],
		[
			48.8750373927863,
			132.941074773189,
			0
		],
		[
			63.9613105513284,
			131.691044727674,
			0
		],
		[
			78.0388756338411,
			129.549210313468,
			0
		],
		[
			90.8857210294435,
			126.132761565652,
			0
		],
		[
			102.299244311913,
			120.969419054007,
			0
		],
		[
			112.099447400978,
			113.453643461147,
			0
		],
		[
			120.131775239565,
			102.726624008596,
			0
		],
		[
			126.269553219381,
			87.3239521722353,
			0
		],
		[
			130.415984915152,
			63.7562400061343,
			0
		],
		[
			33.0179756980279,
			130.935073832655,
			0
		],
		[
			48.8750373927863,
			129.634112170693,
			0
		],
		[
			63.9613105513283,
			127.479220805988,
			0
		],
		[
			78.0388756338411,
			124.138885276499,
			0
		],
		[
			90.8857210294435,
			119.175129369379,
			0
		],
		[
			102.299244311913,
			112.002726339514,
			0
		],
		[
			112.099447400978,
			101.776910151373,
			0
		],
		[
			120.131775239566,
			87.0636932491137,
			0
		],
		[
			126.269553219381,
			64.5389869200600,
			0
		],
		[
			33.0179756980279,
			127.152343538106,
			0
		],
		[
			48.8750373927863,
			125.269802497767,
			0
		],
		[
			63.9613105513283,
			122.273474671402,
			0
		],
		[
			78.0388756338411,
			117.788534585213,
			0
		],
		[
			90.8857210294435,
			111.289855652980,
			0
		],
		[
			102.299244311913,
			102.009930016628,
			0
		],
		[
			112.099447400978,
			88.6756250072351,
			0
		],
		[
			120.131775239566,
			68.5468201171936,
			0
		],
		[
			48.8750373927863,
			120.662235162813,
			0
		],
		[
			63.9613105513283,
			116.912480208367,
			0
		],
		[
			78.0388756338411,
			111.374120833144,
			0
		],
		[
			90.8857210294435,
			103.403262435417,
			0
		],
		[
			102.299244311913,
			91.9647349629039,
			0
		],
		[
			112.099447400978,
			75.0433254866321,
			0
		],
		[
			63.9613105513284,
			112.248475405133,
			0
		],
		[
			78.0388756338411,
			105.826189884815,
			0
		],
		[
			90.8857210294435,
			96.5670353826772,
			0
		],
		[
			102.299244311913,
			83.0973518706818,
			0
		]
	]
}