{
	"title":"|Im(M)|^2(kT4,kT5) (S35→4MT^2) w\/ E3=173 GeV",
	"vars":[
		"kT4",
		"kT5"
	],
	"data":[
		[
			121.608755489502,
			90.4244133421114,
			0
		],
		[
			127.821995409646,
			115.083296856392,
			0
		],
		[
			132.019406105021,
			134.162100765081,
			0
		],
		[
			134.134791901549,
			149.385952725092,
			0
		],
		[
			134.134791901549,
			161.553928299175,
			0
		],
		[
			132.019406105021,
			171.144172318194,
			0
		],
		[
			113.477672849740,
			72.6725641526308,
			0
		],
		[
			121.608755489502,
			101.575850927106,
			0
		],
		[
			127.821995409646,
			123.219076013241,
			0
		],
		[
			132.019406105021,
			140.454610479785,
			0
		],
		[
			134.134791901549,
			154.364257452089,
			0
		],
		[
			134.134791901549,
			165.512083950195,
			0
		],
		[
			132.019406105021,
			174.267147468892,
			0
		],
		[
			127.821995409646,
			180.920627466240,
			0
		],
		[
			103.556979520861,
			57.2811265995543,
			0
		],
		[
			113.477672849740,
			89.9868412369383,
			0
		],
		[
			121.608755489502,
			113.551897695424,
			0
		],
		[
			127.821995409646,
			132.305440361096,
			0
		],
		[
			132.019406105021,
			147.594272602864,
			0
		],
		[
			134.134791901549,
			160.041354418280,
			0
		],
		[
			134.134791901549,
			170.015709197243,
			0
		],
		[
			132.019406105021,
			177.787709283886,
			0
		],
		[
			127.821995409646,
			183.593265597622,
			0
		],
		[
			121.608755489502,
			187.663627413823,
			0
		],
		[
			92.0031307629969,
			47.9763533012583,
			0
		],
		[
			103.556979520861,
			81.9975101355257,
			0
		],
		[
			113.477672849740,
			106.191186407249,
			0
		],
		[
			121.608755489502,
			125.648411830991,
			0
		],
		[
			127.821995409646,
			141.758088896467,
			0
		],
		[
			132.019406105021,
			155.110254337287,
			0
		],
		[
			134.134791901549,
			166.027669908301,
			0
		],
		[
			134.134791901549,
			174.732810993864,
			0
		],
		[
			132.019406105021,
			181.415307491183,
			0
		],
		[
			127.821995409646,
			186.263326689615,
			0
		],
		[
			121.608755489502,
			189.479057005819,
			0
		],
		[
			113.477672849740,
			191.285791464655,
			0
		],
		[
			78.9983376729943,
			49.0372280006754,
			0
		],
		[
			92.0031307629969,
			79.2582468355134,
			0
		],
		[
			103.556979520861,
			102.138023254220,
			0
		],
		[
			113.477672849740,
			121.176637693141,
			0
		],
		[
			121.608755489502,
			137.361899550733,
			0
		],
		[
			127.821995409646,
			151.095214586065,
			0
		],
		[
			132.019406105021,
			162.581619219408,
			0
		],
		[
			134.134791901549,
			171.956962427383,
			0
		],
		[
			134.134791901549,
			179.340584939254,
			0
		],
		[
			132.019406105021,
			184.860546913891,
			0
		],
		[
			127.821995409646,
			188.666686743740,
			0
		],
		[
			121.608755489502,
			190.937280047370,
			0
		],
		[
			113.477672849740,
			191.881589749597,
			0
		],
		[
			103.556979520861,
			191.739087713880,
			0
		],
		[
			64.7476936065691,
			59.8616607770793,
			0
		],
		[
			78.9983376729943,
			82.4634505777947,
			0
		],
		[
			92.0031307629969,
			102.048581144037,
			0
		],
		[
			103.556979520861,
			119.427150776250,
			0
		],
		[
			113.477672849740,
			134.833146188184,
			0
		],
		[
			121.608755489502,
			148.331396416305,
			0
		],
		[
			127.821995409646,
			159.935242198564,
			0
		],
		[
			132.019406105021,
			169.652182870352,
			0
		],
		[
			134.134791901549,
			177.505242279912,
			0
		],
		[
			134.134791901549,
			183.544363553910,
			0
		],
		[
			132.019406105021,
			187.852984155923,
			0
		],
		[
			127.821995409646,
			190.551837976468,
			0
		],
		[
			121.608755489502,
			191.800769792293,
			0
		],
		[
			113.477672849740,
			191.798714260803,
			0
		],
		[
			103.556979520861,
			190.781580098162,
			0
		],
		[
			92.0031307629969,
			189.017456493287,
			0
		],
		[
			49.4759397335709,
			75.9208153696664,
			0
		],
		[
			64.7476936065691,
			90.8079001995379,
			0
		],
		[
			78.9983376729943,
			105.938316733080,
			0
		],
		[
			92.0031307629969,
			120.628241449479,
			0
		],
		[
			103.556979520861,
			134.438322902050,
			0
		],
		[
			113.477672849740,
			147.066337274792,
			0
		],
		[
			121.608755489502,
			158.298174855381,
			0
		],
		[
			127.821995409646,
			167.985192772323,
			0
		],
		[
			132.019406105021,
			176.033697395488,
			0
		],
		[
			134.134791901549,
			182.400189016021,
			0
		],
		[
			134.134791901549,
			187.089386716696,
			0
		],
		[
			132.019406105021,
			190.153536217669,
			0
		],
		[
			127.821995409646,
			191.692156356014,
			0
		],
		[
			121.608755489502,
			191.851633923280,
			0
		],
		[
			113.477672849740,
			190.824106678187,
			0
		],
		[
			103.556979520861,
			188.844952615679,
			0
		],
		[
			92.0031307629969,
			186.187975668028,
			0
		],
		[
			78.9983376729943,
			183.157119807340,
			0
		],
		[
			33.4239207354805,
			93.8578338160842,
			0
		],
		[
			49.4759397335709,
			102.608886242317,
			0
		],
		[
			64.7476936065691,
			113.174133895792,
			0
		],
		[
			78.9983376729943,
			124.622011192132,
			0
		],
		[
			92.0031307629969,
			136.220511119084,
			0
		],
		[
			103.556979520861,
			147.418308665381,
			0
		],
		[
			113.477672849740,
			157.805604260898,
			0
		],
		[
			121.608755489502,
			167.080961312702,
			0
		],
		[
			127.821995409646,
			175.028538454254,
			0
		],
		[
			132.019406105021,
			181.503766426826,
			0
		],
		[
			134.134791901549,
			186.424765474844,
			0
		],
		[
			134.134791901549,
			189.767399400423,
			0
		],
		[
			132.019406105021,
			191.562533419579,
			0
		],
		[
			127.821995409646,
			191.894528343517,
			0
		],
		[
			121.608755489502,
			190.900250002038,
			0
		],
		[
			113.477672849740,
			188.767926288456,
			0
		],
		[
			103.556979520861,
			185.735060087784,
			0
		],
		[
			92.0031307629969,
			182.084317697731,
			0
		],
		[
			78.9983376729943,
			178.135912429884,
			0
		],
		[
			64.7476936065691,
			174.234661684419,
			0
		],
		[
			33.4239207354805,
			116.208126440039,
			0
		],
		[
			49.4759397335709,
			122.762639561611,
			0
		],
		[
			64.7476936065691,
			130.918751767713,
			0
		],
		[
			78.9983376729943,
			139.988440592354,
			0
		],
		[
			92.0031307629969,
			149.354079128847,
			0
		],
		[
			103.556979520861,
			158.499068883192,
			0
		],
		[
			113.477672849740,
			167.008886774302,
			0
		],
		[
			121.608755489502,
			174.561345466374,
			0
		],
		[
			127.821995409646,
			180.915436867632,
			0
		],
		[
			132.019406105021,
			185.902139609007,
			0
		],
		[
			134.134791901549,
			189.417835395386,
			0
		],
		[
			134.134791901549,
			191.420011981711,
			0
		],
		[
			132.019406105021,
			191.924709772990,
			0
		],
		[
			127.821995409646,
			191.005189144194,
			0
		],
		[
			121.608755489502,
			188.791334675055,
			0
		],
		[
			113.477672849740,
			185.469266362925,
			0
		],
		[
			103.556979520861,
			181.280428436545,
			0
		],
		[
			92.0031307629969,
			176.519018080116,
			0
		],
		[
			78.9983376729943,
			171.525985689405,
			0
		],
		[
			64.7476936065691,
			166.677114944831,
			0
		],
		[
			49.4759397335709,
			162.362323551106,
			0
		],
		[
			33.4239207354805,
			133.669827480020,
			0
		],
		[
			49.4759397335709,
			138.842681756744,
			0
		],
		[
			64.7476936065691,
			145.363258609284,
			0
		],
		[
			78.9983376729943,
			152.695318637262,
			0
		],
		[
			92.0031307629969,
			160.320205034845,
			0
		],
		[
			103.556979520861,
			167.774550726484,
			0
		],
		[
			113.477672849740,
			174.665815662805,
			0
		],
		[
			121.608755489502,
			180.675290731110,
			0
		],
		[
			127.821995409646,
			185.555658139598,
			0
		],
		[
			132.019406105021,
			189.127066760050,
			0
		],
		[
			134.134791901549,
			191.273528758998,
			0
		],
		[
			134.134791901549,
			191.940288110926,
			0
		],
		[
			132.019406105021,
			191.132289272287,
			0
		],
		[
			127.821995409646,
			188.913670655324,
			0
		],
		[
			121.608755489502,
			185.408118349010,
			0
		],
		[
			113.477672849740,
			180.799805079299,
			0
		],
		[
			103.556979520861,
			175.334390096680,
			0
		],
		[
			92.0031307629969,
			169.319036747355,
			0
		],
		[
			78.9983376729943,
			163.119485603464,
			0
		],
		[
			64.7476936065691,
			157.150892165177,
			0
		],
		[
			49.4759397335709,
			151.857825464201,
			0
		],
		[
			33.4239207354805,
			147.678862343957,
			0
		],
		[
			33.4239207354805,
			147.678862343957,
			0
		],
		[
			49.4759397335709,
			151.857825464201,
			0
		],
		[
			64.7476936065691,
			157.150892165177,
			0
		],
		[
			78.9983376729943,
			163.119485603464,
			0
		],
		[
			92.0031307629969,
			169.319036747355,
			0
		],
		[
			103.556979520861,
			175.334390096680,
			0
		],
		[
			113.477672849740,
			180.799805079299,
			0
		],
		[
			121.608755489502,
			185.408118349010,
			0
		],
		[
			127.821995409646,
			188.913670655324,
			0
		],
		[
			132.019406105021,
			191.132289272287,
			0
		],
		[
			134.134791901549,
			191.940288110926,
			0
		],
		[
			134.134791901549,
			191.273528758998,
			0
		],
		[
			132.019406105021,
			189.127066760050,
			0
		],
		[
			127.821995409646,
			185.555658139598,
			0
		],
		[
			121.608755489502,
			180.675290731110,
			0
		],
		[
			113.477672849740,
			174.665815662805,
			0
		],
		[
			103.556979520861,
			167.774550726484,
			0
		],
		[
			92.0031307629969,
			160.320205034845,
			0
		],
		[
			78.9983376729943,
			152.695318637262,
			0
		],
		[
			64.7476936065691,
			145.363258609284,
			0
		],
		[
			49.4759397335709,
			138.842681756744,
			0
		],
		[
			33.4239207354805,
			133.669827480020,
			0
		],
		[
			49.4759397335709,
			162.362323551106,
			0
		],
		[
			64.7476936065691,
			166.677114944831,
			0
		],
		[
			78.9983376729943,
			171.525985689405,
			0
		],
		[
			92.0031307629969,
			176.519018080117,
			0
		],
		[
			103.556979520861,
			181.280428436545,
			0
		],
		[
			113.477672849740,
			185.469266362925,
			0
		],
		[
			121.608755489502,
			188.791334675055,
			0
		],
		[
			127.821995409646,
			191.005189144194,
			0
		],
		[
			132.019406105021,
			191.924709772990,
			0
		],
		[
			134.134791901549,
			191.420011981711,
			0
		],
		[
			134.134791901549,
			189.417835395386,
			0
		],
		[
			132.019406105021,
			185.902139609007,
			0
		],
		[
			127.821995409646,
			180.915436867632,
			0
		],
		[
			121.608755489502,
			174.561345466374,
			0
		],
		[
			113.477672849740,
			167.008886774302,
			0
		],
		[
			103.556979520861,
			158.499068883192,
			0
		],
		[
			92.0031307629969,
			149.354079128847,
			0
		],
		[
			78.9983376729943,
			139.988440592354,
			0
		],
		[
			64.7476936065691,
			130.918751767713,
			0
		],
		[
			49.4759397335709,
			122.762639561611,
			0
		],
		[
			33.4239207354805,
			116.208126440039,
			0
		],
		[
			64.7476936065691,
			174.234661684419,
			0
		],
		[
			78.9983376729943,
			178.135912429884,
			0
		],
		[
			92.0031307629969,
			182.084317697731,
			0
		],
		[
			103.556979520861,
			185.735060087784,
			0
		],
		[
			113.477672849740,
			188.767926288456,
			0
		],
		[
			121.608755489502,
			190.900250002038,
			0
		],
		[
			127.821995409646,
			191.894528343517,
			0
		],
		[
			132.019406105021,
			191.562533419579,
			0
		],
		[
			134.134791901549,
			189.767399400423,
			0
		],
		[
			134.134791901549,
			186.424765474844,
			0
		],
		[
			132.019406105021,
			181.503766426826,
			0
		],
		[
			127.821995409646,
			175.028538454254,
			0
		],
		[
			121.608755489502,
			167.080961312702,
			0
		],
		[
			113.477672849740,
			157.805604260898,
			0
		],
		[
			103.556979520861,
			147.418308665380,
			0
		],
		[
			92.0031307629969,
			136.220511119084,
			0
		],
		[
			78.9983376729943,
			124.622011192132,
			0
		],
		[
			64.7476936065691,
			113.174133895792,
			0
		],
		[
			49.4759397335709,
			102.608886242317,
			0
		],
		[
			33.4239207354805,
			93.8578338160842,
			0
		],
		[
			78.9983376729943,
			183.157119807340,
			0
		],
		[
			92.0031307629969,
			186.187975668028,
			0
		],
		[
			103.556979520861,
			188.844952615679,
			0
		],
		[
			113.477672849740,
			190.824106678187,
			0
		],
		[
			121.608755489502,
			191.851633923280,
			0
		],
		[
			127.821995409646,
			191.692156356014,
			0
		],
		[
			132.019406105021,
			190.153536217669,
			0
		],
		[
			134.134791901549,
			187.089386716696,
			0
		],
		[
			134.134791901549,
			182.400189016021,
			0
		],
		[
			132.019406105021,
			176.033697395488,
			0
		],
		[
			127.821995409646,
			167.985192772323,
			0
		],
		[
			121.608755489502,
			158.298174855381,
			0
		],
		[
			113.477672849740,
			147.066337274792,
			0
		],
		[
			103.556979520861,
			134.438322902050,
			0
		],
		[
			92.0031307629969,
			120.628241449479,
			0
		],
		[
			78.9983376729943,
			105.938316733080,
			0
		],
		[
			64.7476936065691,
			90.8079001995380,
			0
		],
		[
			49.4759397335709,
			75.9208153696664,
			0
		],
		[
			92.0031307629969,
			189.017456493287,
			0
		],
		[
			103.556979520861,
			190.781580098162,
			0
		],
		[
			113.477672849740,
			191.798714260803,
			0
		],
		[
			121.608755489502,
			191.800769792293,
			0
		],
		[
			127.821995409646,
			190.551837976468,
			0
		],
		[
			132.019406105021,
			187.852984155923,
			0
		],
		[
			134.134791901549,
			183.544363553910,
			0
		],
		[
			134.134791901549,
			177.505242279912,
			0
		],
		[
			132.019406105021,
			169.652182870353,
			0
		],
		[
			127.821995409646,
			159.935242198564,
			0
		],
		[
			121.608755489502,
			148.331396416305,
			0
		],
		[
			113.477672849740,
			134.833146188184,
			0
		],
		[
			103.556979520861,
			119.427150776250,
			0
		],
		[
			92.0031307629969,
			102.048581144037,
			0
		],
		[
			78.9983376729943,
			82.4634505777947,
			0
		],
		[
			64.7476936065691,
			59.8616607770793,
			0
		],
		[
			103.556979520861,
			191.739087713879,
			0
		],
		[
			113.477672849740,
			191.881589749597,
			0
		],
		[
			121.608755489502,
			190.937280047370,
			0
		],
		[
			127.821995409646,
			188.666686743740,
			0
		],
		[
			132.019406105021,
			184.860546913891,
			0
		],
		[
			134.134791901549,
			179.340584939254,
			0
		],
		[
			134.134791901549,
			171.956962427383,
			0
		],
		[
			132.019406105021,
			162.581619219408,
			0
		],
		[
			127.821995409646,
			151.095214586065,
			0
		],
		[
			121.608755489502,
			137.361899550733,
			0
		],
		[
			113.477672849740,
			121.176637693141,
			0
		],
		[
			103.556979520861,
			102.138023254220,
			0
		],
		[
			92.0031307629969,
			79.2582468355134,
			0
		],
		[
			78.9983376729943,
			49.0372280006754,
			0
		],
		[
			113.477672849740,
			191.285791464655,
			0
		],
		[
			121.608755489502,
			189.479057005819,
			0
		],
		[
			127.821995409646,
			186.263326689615,
			0
		],
		[
			132.019406105021,
			181.415307491183,
			0
		],
		[
			134.134791901549,
			174.732810993864,
			0
		],
		[
			134.134791901549,
			166.027669908301,
			0
		],
		[
			132.019406105021,
			155.110254337287,
			0
		],
		[
			127.821995409646,
			141.758088896467,
			0
		],
		[
			121.608755489502,
			125.648411830991,
			0
		],
		[
			113.477672849740,
			106.191186407249,
			0
		],
		[
			103.556979520861,
			81.9975101355258,
			0
		],
		[
			92.0031307629969,
			47.9763533012582,
			0
		],
		[
			121.608755489502,
			187.663627413823,
			0
		],
		[
			127.821995409646,
			183.593265597622,
			0
		],
		[
			132.019406105021,
			177.787709283886,
			0
		],
		[
			134.134791901549,
			170.015709197243,
			0
		],
		[
			134.134791901549,
			160.041354418280,
			0
		],
		[
			132.019406105021,
			147.594272602864,
			0
		],
		[
			127.821995409646,
			132.305440361096,
			0
		],
		[
			121.608755489502,
			113.551897695424,
			0
		],
		[
			113.477672849740,
			89.9868412369384,
			0
		],
		[
			103.556979520861,
			57.2811265995543,
			0
		],
		[
			127.821995409646,
			180.920627466240,
			0
		],
		[
			132.019406105021,
			174.267147468892,
			0
		],
		[
			134.134791901549,
			165.512083950195,
			0
		],
		[
			134.134791901549,
			154.364257452090,
			0
		],
		[
			132.019406105021,
			140.454610479785,
			0
		],
		[
			127.821995409646,
			123.219076013241,
			0
		],
		[
			121.608755489502,
			101.575850927106,
			0
		],
		[
			113.477672849740,
			72.6725641526308,
			0
		],
		[
			132.019406105021,
			171.144172318194,
			0
		],
		[
			134.134791901549,
			161.553928299175,
			0
		],
		[
			134.134791901549,
			149.385952725092,
			0
		],
		[
			132.019406105021,
			134.162100765081,
			0
		],
		[
			127.821995409646,
			115.083296856392,
			0
		],
		[
			121.608755489502,
			90.4244133421114,
			0
		]
	]
}