{
	"title":"|Im(M)|^2(kT4,kT5) (S35→4MT^2) w\/ E3=232 GeV",
	"vars":[
		"kT4",
		"kT5"
	],
	"data":[
		[
			103.556979520861,
			81.7789636581159,
			0
		],
		[
			92.0031307629970,
			95.4470148184538,
			0
		],
		[
			78.9983376729943,
			104.786228002476,
			0
		],
		[
			64.7476936065691,
			111.234127288061,
			0
		],
		[
			113.477672849740,
			73.4143874474881,
			0
		],
		[
			103.556979520861,
			90.6878072247432,
			0
		],
		[
			92.0031307629970,
			102.269417159139,
			0
		],
		[
			78.9983376729943,
			110.295206097177,
			0
		],
		[
			64.7476936065691,
			115.844856877807,
			0
		],
		[
			49.4759397335709,
			119.585301008536,
			0
		],
		[
			121.608755489502,
			66.5039235154254,
			0
		],
		[
			113.477672849740,
			87.1961282708967,
			0
		],
		[
			103.556979520861,
			100.751847285066,
			0
		],
		[
			92.0031307629970,
			110.123725672123,
			0
		],
		[
			78.9983376729943,
			116.650056722484,
			0
		],
		[
			64.7476936065691,
			121.129093398385,
			0
		],
		[
			49.4759397335709,
			124.104435887057,
			0
		],
		[
			33.4239207354805,
			125.963433139154,
			0
		],
		[
			127.821995409646,
			62.0310525761348,
			0
		],
		[
			121.608755489502,
			85.3570073734781,
			0
		],
		[
			113.477672849740,
			100.375373998158,
			0
		],
		[
			103.556979520861,
			110.733975974673,
			0
		],
		[
			92.0031307629969,
			117.953626142282,
			0
		],
		[
			78.9983376729943,
			122.917244159231,
			0
		],
		[
			64.7476936065691,
			126.232293514588,
			0
		],
		[
			49.4759397335709,
			128.352128234861,
			0
		],
		[
			33.4239207354805,
			129.619694438179,
			0
		],
		[
			132.019406105021,
			60.8361370169338,
			0
		],
		[
			127.821995409646,
			85.3942630823281,
			0
		],
		[
			121.608755489502,
			101.176253699692,
			0
		],
		[
			113.477672849740,
			112.075417903473,
			0
		],
		[
			103.556979520861,
			119.659021776774,
			0
		],
		[
			92.0031307629970,
			124.829479923286,
			0
		],
		[
			78.9983376729943,
			128.217213409508,
			0
		],
		[
			64.7476936065691,
			130.311883736248,
			0
		],
		[
			49.4759397335709,
			131.509946068179,
			0
		],
		[
			33.4239207354805,
			132.128120169024,
			0
		],
		[
			134.134791901549,
			63.1787074674217,
			0
		],
		[
			132.019406105021,
			87.3032041243887,
			0
		],
		[
			127.821995409646,
			103.077873614541,
			0
		],
		[
			121.608755489502,
			114.039959869963,
			0
		],
		[
			113.477672849740,
			121.644748194799,
			0
		],
		[
			103.556979520861,
			126.742811402268,
			0
		],
		[
			92.0031307629969,
			129.943686943760,
			0
		],
		[
			78.9983376729943,
			131.740994430393,
			0
		],
		[
			64.7476936065691,
			132.559296551759,
			0
		],
		[
			49.4759397335709,
			132.767431593674,
			0
		],
		[
			33.4239207354805,
			132.674740182918,
			0
		],
		[
			134.134791901549,
			68.5648450866892,
			0
		],
		[
			134.134791901549,
			90.8521448469882,
			0
		],
		[
			132.019406105021,
			105.905860987807,
			0
		],
		[
			127.821995409646,
			116.476355265890,
			0
		],
		[
			121.608755489502,
			123.775765568123,
			0
		],
		[
			113.477672849740,
			128.539597119114,
			0
		],
		[
			103.556979520861,
			131.315308862352,
			0
		],
		[
			92.0031307629969,
			132.567888873741,
			0
		],
		[
			78.9983376729943,
			132.722106153641,
			0
		],
		[
			64.7476936065691,
			132.175878036113,
			0
		],
		[
			49.4759397335709,
			131.296802608736,
			0
		],
		[
			132.019406105021,
			76.0606087282402,
			0
		],
		[
			134.134791901549,
			95.6516653843109,
			0
		],
		[
			134.134791901549,
			109.418963100046,
			0
		],
		[
			132.019406105021,
			119.207788152755,
			0
		],
		[
			127.821995409646,
			125.914279989566,
			0
		],
		[
			121.608755489502,
			130.113955337640,
			0
		],
		[
			113.477672849740,
			132.258017342892,
			0
		],
		[
			103.556979520861,
			132.752103692858,
			0
		],
		[
			92.0031307629969,
			131.991375416747,
			0
		],
		[
			78.9983376729943,
			130.374474011756,
			0
		],
		[
			64.7476936065691,
			128.303596214705,
			0
		],
		[
			127.821995409646,
			84.7093094699788,
			0
		],
		[
			132.019406105021,
			101.247181758647,
			0
		],
		[
			134.134791901549,
			113.344127627913,
			0
		],
		[
			134.134791901549,
			122.048880319570,
			0
		],
		[
			132.019406105021,
			127.928851400401,
			0
		],
		[
			127.821995409646,
			131.376533552138,
			0
		],
		[
			121.608755489502,
			132.722144895450,
			0
		],
		[
			113.477672849740,
			132.284716372986,
			0
		],
		[
			103.556979520861,
			130.398690395992,
			0
		],
		[
			92.0031307629970,
			127.428532438508,
			0
		],
		[
			78.9983376729943,
			123.775191739489,
			0
		],
		[
			121.608755489502,
			93.7289900171118,
			0
		],
		[
			127.821995409646,
			107.192058209682,
			0
		],
		[
			132.019406105021,
			117.406371692487,
			0
		],
		[
			134.134791901549,
			124.819751596087,
			0
		],
		[
			134.134791901549,
			129.701439006825,
			0
		],
		[
			132.019406105021,
			132.257853962086,
			0
		],
		[
			127.821995409646,
			132.683595631809,
			0
		],
		[
			121.608755489502,
			131.188429847260,
			0
		],
		[
			113.477672849740,
			128.014459224666,
			0
		],
		[
			103.556979520861,
			123.449444744149,
			0
		],
		[
			92.0031307629970,
			117.839008008217,
			0
		],
		[
			113.477672849740,
			102.530276054842,
			0
		],
		[
			121.608755489502,
			113.087654531407,
			0
		],
		[
			127.821995409646,
			121.349519751820,
			0
		],
		[
			132.019406105021,
			127.356348627047,
			0
		],
		[
			134.134791901549,
			131.132483722108,
			0
		],
		[
			134.134791901549,
			132.710516901753,
			0
		],
		[
			132.019406105021,
			132.144362072494,
			0
		],
		[
			127.821995409646,
			129.517349662219,
			0
		],
		[
			121.608755489502,
			124.948333332269,
			0
		],
		[
			113.477672849740,
			118.597772953031,
			0
		],
		[
			103.556979520861,
			110.675806668003,
			0
		],
		[
			103.556979520861,
			110.675806668003,
			0
		],
		[
			113.477672849740,
			118.597772953031,
			0
		],
		[
			121.608755489502,
			124.948333332269,
			0
		],
		[
			127.821995409646,
			129.517349662219,
			0
		],
		[
			132.019406105021,
			132.144362072494,
			0
		],
		[
			134.134791901549,
			132.710516901753,
			0
		],
		[
			134.134791901549,
			131.132483722108,
			0
		],
		[
			132.019406105021,
			127.356348627047,
			0
		],
		[
			127.821995409646,
			121.349519751820,
			0
		],
		[
			121.608755489502,
			113.087654531407,
			0
		],
		[
			113.477672849740,
			102.530276054842,
			0
		],
		[
			92.0031307629970,
			117.839008008217,
			0
		],
		[
			103.556979520861,
			123.449444744149,
			0
		],
		[
			113.477672849740,
			128.014459224666,
			0
		],
		[
			121.608755489502,
			131.188429847260,
			0
		],
		[
			127.821995409646,
			132.683595631809,
			0
		],
		[
			132.019406105021,
			132.257853962086,
			0
		],
		[
			134.134791901549,
			129.701439006825,
			0
		],
		[
			134.134791901549,
			124.819751596087,
			0
		],
		[
			132.019406105021,
			117.406371692487,
			0
		],
		[
			127.821995409646,
			107.192058209682,
			0
		],
		[
			121.608755489502,
			93.7289900171118,
			0
		],
		[
			78.9983376729943,
			123.775191739489,
			0
		],
		[
			92.0031307629970,
			127.428532438508,
			0
		],
		[
			103.556979520861,
			130.398690395992,
			0
		],
		[
			113.477672849740,
			132.284716372986,
			0
		],
		[
			121.608755489502,
			132.722144895450,
			0
		],
		[
			127.821995409646,
			131.376533552138,
			0
		],
		[
			132.019406105021,
			127.928851400401,
			0
		],
		[
			134.134791901549,
			122.048880319570,
			0
		],
		[
			134.134791901549,
			113.344127627913,
			0
		],
		[
			132.019406105021,
			101.247181758647,
			0
		],
		[
			127.821995409646,
			84.7093094699788,
			0
		],
		[
			64.7476936065691,
			128.303596214705,
			0
		],
		[
			78.9983376729943,
			130.374474011756,
			0
		],
		[
			92.0031307629969,
			131.991375416747,
			0
		],
		[
			103.556979520861,
			132.752103692858,
			0
		],
		[
			113.477672849740,
			132.258017342892,
			0
		],
		[
			121.608755489502,
			130.113955337640,
			0
		],
		[
			127.821995409646,
			125.914279989566,
			0
		],
		[
			132.019406105021,
			119.207788152755,
			0
		],
		[
			134.134791901549,
			109.418963100046,
			0
		],
		[
			134.134791901549,
			95.6516653843109,
			0
		],
		[
			132.019406105021,
			76.0606087282402,
			0
		],
		[
			49.4759397335709,
			131.296802608736,
			0
		],
		[
			64.7476936065691,
			132.175878036113,
			0
		],
		[
			78.9983376729943,
			132.722106153641,
			0
		],
		[
			92.0031307629969,
			132.567888873741,
			0
		],
		[
			103.556979520861,
			131.315308862352,
			0
		],
		[
			113.477672849740,
			128.539597119114,
			0
		],
		[
			121.608755489502,
			123.775765568123,
			0
		],
		[
			127.821995409646,
			116.476355265890,
			0
		],
		[
			132.019406105021,
			105.905860987807,
			0
		],
		[
			134.134791901549,
			90.8521448469882,
			0
		],
		[
			134.134791901549,
			68.5648450866893,
			0
		],
		[
			33.4239207354805,
			132.674740182918,
			0
		],
		[
			49.4759397335709,
			132.767431593674,
			0
		],
		[
			64.7476936065691,
			132.559296551759,
			0
		],
		[
			78.9983376729943,
			131.740994430393,
			0
		],
		[
			92.0031307629969,
			129.943686943760,
			0
		],
		[
			103.556979520861,
			126.742811402268,
			0
		],
		[
			113.477672849740,
			121.644748194799,
			0
		],
		[
			121.608755489502,
			114.039959869963,
			0
		],
		[
			127.821995409646,
			103.077873614541,
			0
		],
		[
			132.019406105021,
			87.3032041243888,
			0
		],
		[
			134.134791901549,
			63.1787074674217,
			0
		],
		[
			33.4239207354805,
			132.128120169024,
			0
		],
		[
			49.4759397335709,
			131.509946068179,
			0
		],
		[
			64.7476936065691,
			130.311883736248,
			0
		],
		[
			78.9983376729943,
			128.217213409508,
			0
		],
		[
			92.0031307629970,
			124.829479923286,
			0
		],
		[
			103.556979520861,
			119.659021776774,
			0
		],
		[
			113.477672849740,
			112.075417903473,
			0
		],
		[
			121.608755489502,
			101.176253699692,
			0
		],
		[
			127.821995409646,
			85.3942630823281,
			0
		],
		[
			132.019406105021,
			60.8361370169338,
			0
		],
		[
			33.4239207354805,
			129.619694438179,
			0
		],
		[
			49.4759397335709,
			128.352128234861,
			0
		],
		[
			64.7476936065691,
			126.232293514588,
			0
		],
		[
			78.9983376729943,
			122.917244159231,
			0
		],
		[
			92.0031307629969,
			117.953626142282,
			0
		],
		[
			103.556979520861,
			110.733975974673,
			0
		],
		[
			113.477672849740,
			100.375373998158,
			0
		],
		[
			121.608755489502,
			85.3570073734781,
			0
		],
		[
			127.821995409646,
			62.0310525761348,
			0
		],
		[
			33.4239207354805,
			125.963433139154,
			0
		],
		[
			49.4759397335709,
			124.104435887057,
			0
		],
		[
			64.7476936065691,
			121.129093398385,
			0
		],
		[
			78.9983376729943,
			116.650056722484,
			0
		],
		[
			92.0031307629970,
			110.123725672123,
			0
		],
		[
			103.556979520861,
			100.751847285066,
			0
		],
		[
			113.477672849740,
			87.1961282708968,
			0
		],
		[
			121.608755489502,
			66.5039235154254,
			0
		],
		[
			49.4759397335709,
			119.585301008536,
			0
		],
		[
			64.7476936065691,
			115.844856877807,
			0
		],
		[
			78.9983376729943,
			110.295206097177,
			0
		],
		[
			92.0031307629970,
			102.269417159139,
			0
		],
		[
			103.556979520861,
			90.6878072247432,
			0
		],
		[
			113.477672849740,
			73.4143874474880,
			0
		],
		[
			64.7476936065691,
			111.234127288061,
			0
		],
		[
			78.9983376729943,
			104.786228002476,
			0
		],
		[
			92.0031307629970,
			95.4470148184538,
			0
		],
		[
			103.556979520861,
			81.7789636581159,
			0
		]
	]
}