{
	"title":"|Im(M)|^2(kT3,kT4) (S35→4MT^2) w\/ E3=232 GeV",
	"vars":[
		"kT3",
		"kT4"
	],
	"data":[
		[
			48.8508833796546,
			103.556979520861,
			0
		],
		[
			48.8508833796546,
			92.0031307629970,
			0
		],
		[
			48.8508833796546,
			78.9983376729943,
			0
		],
		[
			48.8508833796546,
			64.7476936065691,
			0
		],
		[
			72.3117847589267,
			113.477672849740,
			0
		],
		[
			72.3117847589267,
			103.556979520861,
			0
		],
		[
			72.3117847589267,
			92.0031307629970,
			0
		],
		[
			72.3117847589267,
			78.9983376729943,
			0
		],
		[
			72.3117847589267,
			64.7476936065691,
			0
		],
		[
			72.3117847589267,
			49.4759397335709,
			0
		],
		[
			94.6322860955840,
			121.608755489502,
			0
		],
		[
			94.6322860955840,
			113.477672849740,
			0
		],
		[
			94.6322860955840,
			103.556979520861,
			0
		],
		[
			94.6322860955840,
			92.0031307629970,
			0
		],
		[
			94.6322860955840,
			78.9983376729943,
			0
		],
		[
			94.6322860955840,
			64.7476936065691,
			0
		],
		[
			94.6322860955840,
			49.4759397335709,
			0
		],
		[
			94.6322860955840,
			33.4239207354805,
			0
		],
		[
			115.460379749926,
			127.821995409646,
			0
		],
		[
			115.460379749926,
			121.608755489502,
			0
		],
		[
			115.460379749926,
			113.477672849740,
			0
		],
		[
			115.460379749926,
			103.556979520861,
			0
		],
		[
			115.460379749926,
			92.0031307629969,
			0
		],
		[
			115.460379749926,
			78.9983376729943,
			0
		],
		[
			115.460379749926,
			64.7476936065691,
			0
		],
		[
			115.460379749926,
			49.4759397335709,
			0
		],
		[
			115.460379749926,
			33.4239207354805,
			0
		],
		[
			134.467594242925,
			132.019406105021,
			0
		],
		[
			134.467594242925,
			127.821995409646,
			0
		],
		[
			134.467594242925,
			121.608755489502,
			0
		],
		[
			134.467594242925,
			113.477672849740,
			0
		],
		[
			134.467594242925,
			103.556979520861,
			0
		],
		[
			134.467594242925,
			92.0031307629970,
			0
		],
		[
			134.467594242925,
			78.9983376729943,
			0
		],
		[
			134.467594242925,
			64.7476936065691,
			0
		],
		[
			134.467594242925,
			49.4759397335709,
			0
		],
		[
			134.467594242925,
			33.4239207354805,
			0
		],
		[
			151.354174447665,
			134.134791901549,
			0
		],
		[
			151.354174447665,
			132.019406105021,
			0
		],
		[
			151.354174447665,
			127.821995409646,
			0
		],
		[
			151.354174447665,
			121.608755489502,
			0
		],
		[
			151.354174447665,
			113.477672849740,
			0
		],
		[
			151.354174447665,
			103.556979520861,
			0
		],
		[
			151.354174447665,
			92.0031307629969,
			0
		],
		[
			151.354174447665,
			78.9983376729943,
			0
		],
		[
			151.354174447665,
			64.7476936065691,
			0
		],
		[
			151.354174447665,
			49.4759397335709,
			0
		],
		[
			151.354174447665,
			33.4239207354805,
			0
		],
		[
			165.853808906765,
			134.134791901549,
			0
		],
		[
			165.853808906765,
			134.134791901549,
			0
		],
		[
			165.853808906765,
			132.019406105021,
			0
		],
		[
			165.853808906765,
			127.821995409646,
			0
		],
		[
			165.853808906765,
			121.608755489502,
			0
		],
		[
			165.853808906765,
			113.477672849740,
			0
		],
		[
			165.853808906765,
			103.556979520861,
			0
		],
		[
			165.853808906765,
			92.0031307629969,
			0
		],
		[
			165.853808906765,
			78.9983376729943,
			0
		],
		[
			165.853808906765,
			64.7476936065691,
			0
		],
		[
			165.853808906765,
			49.4759397335709,
			0
		],
		[
			177.737829723141,
			132.019406105021,
			0
		],
		[
			177.737829723141,
			134.134791901549,
			0
		],
		[
			177.737829723141,
			134.134791901549,
			0
		],
		[
			177.737829723141,
			132.019406105021,
			0
		],
		[
			177.737829723141,
			127.821995409646,
			0
		],
		[
			177.737829723141,
			121.608755489502,
			0
		],
		[
			177.737829723141,
			113.477672849740,
			0
		],
		[
			177.737829723141,
			103.556979520861,
			0
		],
		[
			177.737829723141,
			92.0031307629969,
			0
		],
		[
			177.737829723141,
			78.9983376729943,
			0
		],
		[
			177.737829723141,
			64.7476936065691,
			0
		],
		[
			186.818818789351,
			127.821995409646,
			0
		],
		[
			186.818818789351,
			132.019406105021,
			0
		],
		[
			186.818818789351,
			134.134791901549,
			0
		],
		[
			186.818818789351,
			134.134791901549,
			0
		],
		[
			186.818818789351,
			132.019406105021,
			0
		],
		[
			186.818818789351,
			127.821995409646,
			0
		],
		[
			186.818818789351,
			121.608755489502,
			0
		],
		[
			186.818818789351,
			113.477672849740,
			0
		],
		[
			186.818818789351,
			103.556979520861,
			0
		],
		[
			186.818818789351,
			92.0031307629970,
			0
		],
		[
			186.818818789351,
			78.9983376729943,
			0
		],
		[
			192.953563483100,
			121.608755489502,
			0
		],
		[
			192.953563483100,
			127.821995409646,
			0
		],
		[
			192.953563483100,
			132.019406105021,
			0
		],
		[
			192.953563483100,
			134.134791901549,
			0
		],
		[
			192.953563483100,
			134.134791901549,
			0
		],
		[
			192.953563483100,
			132.019406105021,
			0
		],
		[
			192.953563483100,
			127.821995409646,
			0
		],
		[
			192.953563483100,
			121.608755489502,
			0
		],
		[
			192.953563483100,
			113.477672849740,
			0
		],
		[
			192.953563483100,
			103.556979520861,
			0
		],
		[
			192.953563483100,
			92.0031307629970,
			0
		],
		[
			196.045315215849,
			113.477672849740,
			0
		],
		[
			196.045315215849,
			121.608755489502,
			0
		],
		[
			196.045315215849,
			127.821995409646,
			0
		],
		[
			196.045315215849,
			132.019406105021,
			0
		],
		[
			196.045315215849,
			134.134791901549,
			0
		],
		[
			196.045315215849,
			134.134791901549,
			0
		],
		[
			196.045315215849,
			132.019406105021,
			0
		],
		[
			196.045315215849,
			127.821995409646,
			0
		],
		[
			196.045315215849,
			121.608755489502,
			0
		],
		[
			196.045315215849,
			113.477672849740,
			0
		],
		[
			196.045315215849,
			103.556979520861,
			0
		],
		[
			196.045315215849,
			103.556979520861,
			0
		],
		[
			196.045315215849,
			113.477672849740,
			0
		],
		[
			196.045315215849,
			121.608755489502,
			0
		],
		[
			196.045315215849,
			127.821995409646,
			0
		],
		[
			196.045315215849,
			132.019406105021,
			0
		],
		[
			196.045315215849,
			134.134791901549,
			0
		],
		[
			196.045315215849,
			134.134791901549,
			0
		],
		[
			196.045315215849,
			132.019406105021,
			0
		],
		[
			196.045315215849,
			127.821995409646,
			0
		],
		[
			196.045315215849,
			121.608755489502,
			0
		],
		[
			196.045315215849,
			113.477672849740,
			0
		],
		[
			192.953563483100,
			92.0031307629970,
			0
		],
		[
			192.953563483100,
			103.556979520861,
			0
		],
		[
			192.953563483100,
			113.477672849740,
			0
		],
		[
			192.953563483100,
			121.608755489502,
			0
		],
		[
			192.953563483100,
			127.821995409646,
			0
		],
		[
			192.953563483100,
			132.019406105021,
			0
		],
		[
			192.953563483100,
			134.134791901549,
			0
		],
		[
			192.953563483100,
			134.134791901549,
			0
		],
		[
			192.953563483100,
			132.019406105021,
			0
		],
		[
			192.953563483100,
			127.821995409646,
			0
		],
		[
			192.953563483100,
			121.608755489502,
			0
		],
		[
			186.818818789351,
			78.9983376729943,
			0
		],
		[
			186.818818789351,
			92.0031307629970,
			0
		],
		[
			186.818818789351,
			103.556979520861,
			0
		],
		[
			186.818818789351,
			113.477672849740,
			0
		],
		[
			186.818818789351,
			121.608755489502,
			0
		],
		[
			186.818818789351,
			127.821995409646,
			0
		],
		[
			186.818818789351,
			132.019406105021,
			0
		],
		[
			186.818818789351,
			134.134791901549,
			0
		],
		[
			186.818818789351,
			134.134791901549,
			0
		],
		[
			186.818818789351,
			132.019406105021,
			0
		],
		[
			186.818818789351,
			127.821995409646,
			0
		],
		[
			177.737829723141,
			64.7476936065691,
			0
		],
		[
			177.737829723141,
			78.9983376729943,
			0
		],
		[
			177.737829723141,
			92.0031307629969,
			0
		],
		[
			177.737829723141,
			103.556979520861,
			0
		],
		[
			177.737829723141,
			113.477672849740,
			0
		],
		[
			177.737829723141,
			121.608755489502,
			0
		],
		[
			177.737829723141,
			127.821995409646,
			0
		],
		[
			177.737829723141,
			132.019406105021,
			0
		],
		[
			177.737829723141,
			134.134791901549,
			0
		],
		[
			177.737829723141,
			134.134791901549,
			0
		],
		[
			177.737829723141,
			132.019406105021,
			0
		],
		[
			165.853808906765,
			49.4759397335709,
			0
		],
		[
			165.853808906765,
			64.7476936065691,
			0
		],
		[
			165.853808906765,
			78.9983376729943,
			0
		],
		[
			165.853808906765,
			92.0031307629969,
			0
		],
		[
			165.853808906765,
			103.556979520861,
			0
		],
		[
			165.853808906765,
			113.477672849740,
			0
		],
		[
			165.853808906765,
			121.608755489502,
			0
		],
		[
			165.853808906765,
			127.821995409646,
			0
		],
		[
			165.853808906765,
			132.019406105021,
			0
		],
		[
			165.853808906765,
			134.134791901549,
			0
		],
		[
			165.853808906765,
			134.134791901549,
			0
		],
		[
			151.354174447665,
			33.4239207354805,
			0
		],
		[
			151.354174447665,
			49.4759397335709,
			0
		],
		[
			151.354174447665,
			64.7476936065691,
			0
		],
		[
			151.354174447665,
			78.9983376729943,
			0
		],
		[
			151.354174447665,
			92.0031307629969,
			0
		],
		[
			151.354174447665,
			103.556979520861,
			0
		],
		[
			151.354174447665,
			113.477672849740,
			0
		],
		[
			151.354174447665,
			121.608755489502,
			0
		],
		[
			151.354174447665,
			127.821995409646,
			0
		],
		[
			151.354174447665,
			132.019406105021,
			0
		],
		[
			151.354174447665,
			134.134791901549,
			0
		],
		[
			134.467594242925,
			33.4239207354805,
			0
		],
		[
			134.467594242925,
			49.4759397335709,
			0
		],
		[
			134.467594242925,
			64.7476936065691,
			0
		],
		[
			134.467594242925,
			78.9983376729943,
			0
		],
		[
			134.467594242925,
			92.0031307629970,
			0
		],
		[
			134.467594242925,
			103.556979520861,
			0
		],
		[
			134.467594242925,
			113.477672849740,
			0
		],
		[
			134.467594242925,
			121.608755489502,
			0
		],
		[
			134.467594242925,
			127.821995409646,
			0
		],
		[
			134.467594242925,
			132.019406105021,
			0
		],
		[
			115.460379749926,
			33.4239207354805,
			0
		],
		[
			115.460379749926,
			49.4759397335709,
			0
		],
		[
			115.460379749926,
			64.7476936065691,
			0
		],
		[
			115.460379749926,
			78.9983376729943,
			0
		],
		[
			115.460379749926,
			92.0031307629969,
			0
		],
		[
			115.460379749926,
			103.556979520861,
			0
		],
		[
			115.460379749926,
			113.477672849740,
			0
		],
		[
			115.460379749926,
			121.608755489502,
			0
		],
		[
			115.460379749926,
			127.821995409646,
			0
		],
		[
			94.6322860955840,
			33.4239207354805,
			0
		],
		[
			94.6322860955840,
			49.4759397335709,
			0
		],
		[
			94.6322860955840,
			64.7476936065691,
			0
		],
		[
			94.6322860955840,
			78.9983376729943,
			0
		],
		[
			94.6322860955840,
			92.0031307629970,
			0
		],
		[
			94.6322860955840,
			103.556979520861,
			0
		],
		[
			94.6322860955840,
			113.477672849740,
			0
		],
		[
			94.6322860955840,
			121.608755489502,
			0
		],
		[
			72.3117847589267,
			49.4759397335709,
			0
		],
		[
			72.3117847589267,
			64.7476936065691,
			0
		],
		[
			72.3117847589267,
			78.9983376729943,
			0
		],
		[
			72.3117847589267,
			92.0031307629970,
			0
		],
		[
			72.3117847589267,
			103.556979520861,
			0
		],
		[
			72.3117847589267,
			113.477672849740,
			0
		],
		[
			48.8508833796546,
			64.7476936065691,
			0
		],
		[
			48.8508833796546,
			78.9983376729943,
			0
		],
		[
			48.8508833796546,
			92.0031307629970,
			0
		],
		[
			48.8508833796546,
			103.556979520861,
			0
		]
	]
}