{
	"title":"|Im(M)|^2(kT4,kT5) (S35→4MT^2) w\/ E3=192 GeV",
	"vars":[
		"kT4",
		"kT5"
	],
	"data":[
		[
			134.134791901549,
			111.654941636915,
			0
		],
		[
			132.019406105021,
			128.975415193278,
			0
		],
		[
			127.821995409646,
			141.995204805661,
			0
		],
		[
			121.608755489502,
			151.810602044301,
			0
		],
		[
			134.134791901549,
			96.7515586376909,
			0
		],
		[
			134.134791901549,
			118.060431057221,
			0
		],
		[
			132.019406105021,
			133.852731304016,
			0
		],
		[
			127.821995409646,
			145.806331837049,
			0
		],
		[
			121.608755489502,
			154.808505528632,
			0
		],
		[
			113.477672849740,
			161.447742408726,
			0
		],
		[
			132.019406105021,
			81.8743851371769,
			0
		],
		[
			134.134791901549,
			107.455005913633,
			0
		],
		[
			134.134791901549,
			125.939435062868,
			0
		],
		[
			132.019406105021,
			139.920931378988,
			0
		],
		[
			127.821995409646,
			150.551757226912,
			0
		],
		[
			121.608755489502,
			158.515822006801,
			0
		],
		[
			113.477672849740,
			164.305473167925,
			0
		],
		[
			103.556979520861,
			168.325237189935,
			0
		],
		[
			127.821995409646,
			68.2748549922358,
			0
		],
		[
			132.019406105021,
			98.0299697200695,
			0
		],
		[
			134.134791901549,
			118.846015159160,
			0
		],
		[
			134.134791901549,
			134.563230954576,
			0
		],
		[
			132.019406105021,
			146.614207567102,
			0
		],
		[
			127.821995409646,
			155.765281253553,
			0
		],
		[
			121.608755489502,
			162.530751468431,
			0
		],
		[
			113.477672849740,
			167.316972201269,
			0
		],
		[
			103.556979520861,
			170.481843256725,
			0
		],
		[
			92.0031307629969,
			172.360051055432,
			0
		],
		[
			121.608755489502,
			57.9938837105087,
			0
		],
		[
			127.821995409646,
			90.8286605469652,
			0
		],
		[
			132.019406105021,
			113.210237982459,
			0
		],
		[
			134.134791901549,
			130.154055323093,
			0
		],
		[
			134.134791901549,
			143.279022192643,
			0
		],
		[
			132.019406105021,
			153.383052235841,
			0
		],
		[
			127.821995409646,
			160.971273725576,
			0
		],
		[
			121.608755489502,
			166.429443897905,
			0
		],
		[
			113.477672849740,
			170.094509336155,
			0
		],
		[
			103.556979520861,
			172.285832659886,
			0
		],
		[
			92.0031307629969,
			173.317797323095,
			0
		],
		[
			78.9983376729943,
			173.501606394364,
			0
		],
		[
			113.477672849740,
			53.7632552127878,
			0
		],
		[
			121.608755489502,
			86.9019319946867,
			0
		],
		[
			127.821995409646,
			109.633317342126,
			0
		],
		[
			132.019406105021,
			127.081275335717,
			0
		],
		[
			134.134791901549,
			140.804968727175,
			0
		],
		[
			134.134791901549,
			151.539282228215,
			0
		],
		[
			132.019406105021,
			159.732605047474,
			0
		],
		[
			127.821995409646,
			165.720756784199,
			0
		],
		[
			121.608755489502,
			169.797943210634,
			0
		],
		[
			113.477672849740,
			172.249195467698,
			0
		],
		[
			103.556979520861,
			173.365046497863,
			0
		],
		[
			92.0031307629969,
			173.446114622115,
			0
		],
		[
			78.9983376729943,
			172.800537163522,
			0
		],
		[
			64.7476936065690,
			171.735372399686,
			0
		],
		[
			103.556979520861,
			57.2079973545360,
			0
		],
		[
			113.477672849740,
			86.9484168741832,
			0
		],
		[
			121.608755489502,
			108.550350118565,
			0
		],
		[
			127.821995409646,
			125.640940255341,
			0
		],
		[
			132.019406105021,
			139.396452149924,
			0
		],
		[
			134.134791901549,
			150.371301753223,
			0
		],
		[
			134.134791901549,
			158.900811960934,
			0
		],
		[
			132.019406105021,
			165.237973663798,
			0
		],
		[
			127.821995409646,
			169.611293222533,
			0
		],
		[
			121.608755489502,
			172.252465725189,
			0
		],
		[
			113.477672849740,
			173.410060001482,
			0
		],
		[
			103.556979520861,
			173.355278804860,
			0
		],
		[
			92.0031307629969,
			172.382006017873,
			0
		],
		[
			78.9983376729943,
			170.801648998576,
			0
		],
		[
			64.7476936065690,
			168.932556132287,
			0
		],
		[
			49.4759397335709,
			167.083791500802,
			0
		],
		[
			92.0031307629969,
			66.9781556558188,
			0
		],
		[
			103.556979520861,
			90.9592327883142,
			0
		],
		[
			113.477672849740,
			110.102440507244,
			0
		],
		[
			121.608755489502,
			125.979902568744,
			0
		],
		[
			127.821995409646,
			139.174967667826,
			0
		],
		[
			132.019406105021,
			149.968798351103,
			0
		],
		[
			134.134791901549,
			158.534832130577,
			0
		],
		[
			134.134791901549,
			165.013501194101,
			0
		],
		[
			132.019406105021,
			169.546661647562,
			0
		],
		[
			127.821995409646,
			172.295435730981,
			0
		],
		[
			121.608755489502,
			173.450012252068,
			0
		],
		[
			113.477672849740,
			173.234756452612,
			0
		],
		[
			103.556979520861,
			171.909795426529,
			0
		],
		[
			92.0031307629969,
			169.769086065140,
			0
		],
		[
			78.9983376729943,
			167.134222054353,
			0
		],
		[
			64.7476936065690,
			164.342796403532,
			0
		],
		[
			49.4759397335709,
			161.730214036234,
			0
		],
		[
			33.4239207354805,
			159.604830304377,
			0
		],
		[
			78.9983376729943,
			80.3380699083321,
			0
		],
		[
			92.0031307629969,
			98.2230879556703,
			0
		],
		[
			103.556979520861,
			114.088768772536,
			0
		],
		[
			113.477672849740,
			128.063114934000,
			0
		],
		[
			121.608755489502,
			140.159973847403,
			0
		],
		[
			127.821995409646,
			150.363180845905,
			0
		],
		[
			132.019406105021,
			158.660895279698,
			0
		],
		[
			134.134791901549,
			165.062503754368,
			0
		],
		[
			134.134791901549,
			169.608248366846,
			0
		],
		[
			132.019406105021,
			172.375377442593,
			0
		],
		[
			127.821995409646,
			173.482397175321,
			0
		],
		[
			121.608755489502,
			173.092067459179,
			0
		],
		[
			113.477672849740,
			171.413261817670,
			0
		],
		[
			103.556979520861,
			168.701369637954,
			0
		],
		[
			92.0031307629969,
			165.256408031960,
			0
		],
		[
			78.9983376729943,
			161.417385979279,
			0
		],
		[
			64.7476936065690,
			157.550839892767,
			0
		],
		[
			49.4759397335709,
			154.031236427997,
			0
		],
		[
			33.4239207354805,
			151.211863935348,
			0
		],
		[
			64.7476936065690,
			95.1498103266778,
			0
		],
		[
			78.9983376729943,
			107.685934701379,
			0
		],
		[
			92.0031307629969,
			120.033842443051,
			0
		],
		[
			103.556979520861,
			131.681697081838,
			0
		],
		[
			113.477672849740,
			142.265675154429,
			0
		],
		[
			121.608755489502,
			151.523671547534,
			0
		],
		[
			127.821995409646,
			159.269945714067,
			0
		],
		[
			132.019406105021,
			165.381665673127,
			0
		],
		[
			134.134791901549,
			169.792051253194,
			0
		],
		[
			134.134791901549,
			172.487220918579,
			0
		],
		[
			132.019406105021,
			173.505184613789,
			0
		],
		[
			127.821995409646,
			172.936134643062,
			0
		],
		[
			121.608755489502,
			170.923529790969,
			0
		],
		[
			113.477672849740,
			167.665558167674,
			0
		],
		[
			103.556979520861,
			163.416412641610,
			0
		],
		[
			92.0031307629969,
			158.486359226216,
			0
		],
		[
			78.9983376729943,
			153.238739976943,
			0
		],
		[
			64.7476936065690,
			148.080851231939,
			0
		],
		[
			49.4759397335709,
			143.444501414706,
			0
		],
		[
			33.4239207354805,
			139.752220905736,
			0
		],
		[
			49.4759397335709,
			110.093568116599,
			0
		],
		[
			64.7476936065690,
			118.307261369554,
			0
		],
		[
			78.9983376729943,
			127.321322729762,
			0
		],
		[
			92.0031307629969,
			136.497625612675,
			0
		],
		[
			103.556979520861,
			145.314886907414,
			0
		],
		[
			113.477672849740,
			153.361136470005,
			0
		],
		[
			121.608755489502,
			160.318538829090,
			0
		],
		[
			127.821995409646,
			165.949463378827,
			0
		],
		[
			132.019406105021,
			170.086151705600,
			0
		],
		[
			134.134791901549,
			172.623884599721,
			0
		],
		[
			134.134791901549,
			173.516946727082,
			0
		],
		[
			132.019406105021,
			172.776733715705,
			0
		],
		[
			127.821995409646,
			170.471558226378,
			0
		],
		[
			121.608755489502,
			166.727911490427,
			0
		],
		[
			113.477672849740,
			161.733044954507,
			0
		],
		[
			103.556979520861,
			155.738663140841,
			0
		],
		[
			92.0031307629969,
			149.065092765983,
			0
		],
		[
			78.9983376729943,
			142.104211856579,
			0
		],
		[
			64.7476936065690,
			135.317297862540,
			0
		],
		[
			49.4759397335709,
			129.220722112355,
			0
		],
		[
			33.4239207354805,
			124.349547039799,
			0
		],
		[
			33.4239207354805,
			124.349547039799,
			0
		],
		[
			49.4759397335709,
			129.220722112355,
			0
		],
		[
			64.7476936065690,
			135.317297862540,
			0
		],
		[
			78.9983376729943,
			142.104211856579,
			0
		],
		[
			92.0031307629969,
			149.065092765983,
			0
		],
		[
			103.556979520861,
			155.738663140841,
			0
		],
		[
			113.477672849740,
			161.733044954507,
			0
		],
		[
			121.608755489502,
			166.727911490427,
			0
		],
		[
			127.821995409646,
			170.471558226378,
			0
		],
		[
			132.019406105021,
			172.776733715705,
			0
		],
		[
			134.134791901549,
			173.516946727082,
			0
		],
		[
			134.134791901549,
			172.623884599721,
			0
		],
		[
			132.019406105021,
			170.086151705600,
			0
		],
		[
			127.821995409646,
			165.949463378827,
			0
		],
		[
			121.608755489502,
			160.318538829090,
			0
		],
		[
			113.477672849740,
			153.361136470005,
			0
		],
		[
			103.556979520861,
			145.314886907414,
			0
		],
		[
			92.0031307629969,
			136.497625612675,
			0
		],
		[
			78.9983376729943,
			127.321322729762,
			0
		],
		[
			64.7476936065690,
			118.307261369554,
			0
		],
		[
			49.4759397335709,
			110.093568116599,
			0
		],
		[
			33.4239207354805,
			139.752220905736,
			0
		],
		[
			49.4759397335709,
			143.444501414706,
			0
		],
		[
			64.7476936065690,
			148.080851231939,
			0
		],
		[
			78.9983376729943,
			153.238739976943,
			0
		],
		[
			92.0031307629969,
			158.486359226216,
			0
		],
		[
			103.556979520861,
			163.416412641610,
			0
		],
		[
			113.477672849740,
			167.665558167674,
			0
		],
		[
			121.608755489502,
			170.923529790969,
			0
		],
		[
			127.821995409646,
			172.936134643062,
			0
		],
		[
			132.019406105021,
			173.505184613789,
			0
		],
		[
			134.134791901549,
			172.487220918579,
			0
		],
		[
			134.134791901549,
			169.792051253194,
			0
		],
		[
			132.019406105021,
			165.381665673127,
			0
		],
		[
			127.821995409646,
			159.269945714067,
			0
		],
		[
			121.608755489502,
			151.523671547534,
			0
		],
		[
			113.477672849740,
			142.265675154429,
			0
		],
		[
			103.556979520861,
			131.681697081838,
			0
		],
		[
			92.0031307629969,
			120.033842443051,
			0
		],
		[
			78.9983376729943,
			107.685934701379,
			0
		],
		[
			64.7476936065690,
			95.1498103266778,
			0
		],
		[
			33.4239207354805,
			151.211863935348,
			0
		],
		[
			49.4759397335709,
			154.031236427997,
			0
		],
		[
			64.7476936065690,
			157.550839892767,
			0
		],
		[
			78.9983376729943,
			161.417385979279,
			0
		],
		[
			92.0031307629969,
			165.256408031960,
			0
		],
		[
			103.556979520861,
			168.701369637954,
			0
		],
		[
			113.477672849740,
			171.413261817670,
			0
		],
		[
			121.608755489502,
			173.092067459179,
			0
		],
		[
			127.821995409646,
			173.482397175321,
			0
		],
		[
			132.019406105021,
			172.375377442593,
			0
		],
		[
			134.134791901549,
			169.608248366846,
			0
		],
		[
			134.134791901549,
			165.062503754368,
			0
		],
		[
			132.019406105021,
			158.660895279698,
			0
		],
		[
			127.821995409646,
			150.363180845905,
			0
		],
		[
			121.608755489502,
			140.159973847403,
			0
		],
		[
			113.477672849740,
			128.063114934000,
			0
		],
		[
			103.556979520861,
			114.088768772536,
			0
		],
		[
			92.0031307629969,
			98.2230879556703,
			0
		],
		[
			78.9983376729943,
			80.3380699083321,
			0
		],
		[
			33.4239207354805,
			159.604830304377,
			0
		],
		[
			49.4759397335709,
			161.730214036234,
			0
		],
		[
			64.7476936065690,
			164.342796403532,
			0
		],
		[
			78.9983376729943,
			167.134222054353,
			0
		],
		[
			92.0031307629969,
			169.769086065140,
			0
		],
		[
			103.556979520861,
			171.909795426529,
			0
		],
		[
			113.477672849740,
			173.234756452612,
			0
		],
		[
			121.608755489502,
			173.450012252068,
			0
		],
		[
			127.821995409646,
			172.295435730981,
			0
		],
		[
			132.019406105021,
			169.546661647562,
			0
		],
		[
			134.134791901549,
			165.013501194101,
			0
		],
		[
			134.134791901549,
			158.534832130577,
			0
		],
		[
			132.019406105021,
			149.968798351103,
			0
		],
		[
			127.821995409646,
			139.174967667826,
			0
		],
		[
			121.608755489502,
			125.979902568744,
			0
		],
		[
			113.477672849740,
			110.102440507244,
			0
		],
		[
			103.556979520861,
			90.9592327883142,
			0
		],
		[
			92.0031307629969,
			66.9781556558188,
			0
		],
		[
			49.4759397335709,
			167.083791500802,
			0
		],
		[
			64.7476936065690,
			168.932556132287,
			0
		],
		[
			78.9983376729943,
			170.801648998576,
			0
		],
		[
			92.0031307629969,
			172.382006017873,
			0
		],
		[
			103.556979520861,
			173.355278804860,
			0
		],
		[
			113.477672849740,
			173.410060001482,
			0
		],
		[
			121.608755489502,
			172.252465725189,
			0
		],
		[
			127.821995409646,
			169.611293222533,
			0
		],
		[
			132.019406105021,
			165.237973663798,
			0
		],
		[
			134.134791901549,
			158.900811960934,
			0
		],
		[
			134.134791901549,
			150.371301753223,
			0
		],
		[
			132.019406105021,
			139.396452149924,
			0
		],
		[
			127.821995409646,
			125.640940255341,
			0
		],
		[
			121.608755489502,
			108.550350118565,
			0
		],
		[
			113.477672849740,
			86.9484168741832,
			0
		],
		[
			103.556979520861,
			57.2079973545360,
			0
		],
		[
			64.7476936065690,
			171.735372399686,
			0
		],
		[
			78.9983376729943,
			172.800537163522,
			0
		],
		[
			92.0031307629969,
			173.446114622115,
			0
		],
		[
			103.556979520861,
			173.365046497863,
			0
		],
		[
			113.477672849740,
			172.249195467699,
			0
		],
		[
			121.608755489502,
			169.797943210634,
			0
		],
		[
			127.821995409646,
			165.720756784199,
			0
		],
		[
			132.019406105021,
			159.732605047474,
			0
		],
		[
			134.134791901549,
			151.539282228215,
			0
		],
		[
			134.134791901549,
			140.804968727175,
			0
		],
		[
			132.019406105021,
			127.081275335717,
			0
		],
		[
			127.821995409646,
			109.633317342126,
			0
		],
		[
			121.608755489502,
			86.9019319946867,
			0
		],
		[
			113.477672849740,
			53.7632552127878,
			0
		],
		[
			78.9983376729943,
			173.501606394364,
			0
		],
		[
			92.0031307629969,
			173.317797323095,
			0
		],
		[
			103.556979520861,
			172.285832659886,
			0
		],
		[
			113.477672849740,
			170.094509336155,
			0
		],
		[
			121.608755489502,
			166.429443897905,
			0
		],
		[
			127.821995409646,
			160.971273725576,
			0
		],
		[
			132.019406105021,
			153.383052235841,
			0
		],
		[
			134.134791901549,
			143.279022192643,
			0
		],
		[
			134.134791901549,
			130.154055323093,
			0
		],
		[
			132.019406105021,
			113.210237982459,
			0
		],
		[
			127.821995409646,
			90.8286605469652,
			0
		],
		[
			121.608755489502,
			57.9938837105087,
			0
		],
		[
			92.0031307629969,
			172.360051055432,
			0
		],
		[
			103.556979520861,
			170.481843256725,
			0
		],
		[
			113.477672849740,
			167.316972201269,
			0
		],
		[
			121.608755489502,
			162.530751468431,
			0
		],
		[
			127.821995409646,
			155.765281253553,
			0
		],
		[
			132.019406105021,
			146.614207567102,
			0
		],
		[
			134.134791901549,
			134.563230954576,
			0
		],
		[
			134.134791901549,
			118.846015159160,
			0
		],
		[
			132.019406105021,
			98.0299697200695,
			0
		],
		[
			127.821995409646,
			68.2748549922359,
			0
		],
		[
			103.556979520861,
			168.325237189935,
			0
		],
		[
			113.477672849740,
			164.305473167925,
			0
		],
		[
			121.608755489502,
			158.515822006801,
			0
		],
		[
			127.821995409646,
			150.551757226912,
			0
		],
		[
			132.019406105021,
			139.920931378988,
			0
		],
		[
			134.134791901549,
			125.939435062868,
			0
		],
		[
			134.134791901549,
			107.455005913633,
			0
		],
		[
			132.019406105021,
			81.8743851371770,
			0
		],
		[
			113.477672849740,
			161.447742408726,
			0
		],
		[
			121.608755489502,
			154.808505528632,
			0
		],
		[
			127.821995409646,
			145.806331837049,
			0
		],
		[
			132.019406105021,
			133.852731304016,
			0
		],
		[
			134.134791901549,
			118.060431057221,
			0
		],
		[
			134.134791901549,
			96.7515586376909,
			0
		],
		[
			121.608755489502,
			151.810602044301,
			0
		],
		[
			127.821995409646,
			141.995204805661,
			0
		],
		[
			132.019406105021,
			128.975415193278,
			0
		],
		[
			134.134791901549,
			111.654941636915,
			0
		]
	]
}