{
	"title":"|Im(M)|^2(kT4,kT5) (S35→4MT^2) w\/ E3=211 GeV",
	"vars":[
		"kT4",
		"kT5"
	],
	"data":[
		[
			127.821995409646,
			90.4555046924103,
			0
		],
		[
			121.608755489502,
			108.788647615067,
			0
		],
		[
			113.477672849740,
			121.765422546315,
			0
		],
		[
			103.556979520861,
			131.150758077656,
			0
		],
		[
			132.019406105021,
			75.3412418890079,
			0
		],
		[
			127.821995409646,
			98.9352630315080,
			0
		],
		[
			121.608755489502,
			115.032672498312,
			0
		],
		[
			113.477672849740,
			126.601378764038,
			0
		],
		[
			103.556979520861,
			134.982379414198,
			0
		],
		[
			92.0031307629969,
			140.983245111456,
			0
		],
		[
			134.134791901549,
			59.8692931043587,
			0
		],
		[
			132.019406105021,
			89.6872062862154,
			0
		],
		[
			127.821995409646,
			108.887507767823,
			0
		],
		[
			121.608755489502,
			122.530064834122,
			0
		],
		[
			113.477672849740,
			132.432339716252,
			0
		],
		[
			103.556979520861,
			139.573486224053,
			0
		],
		[
			92.0031307629969,
			144.608495406029,
			0
		],
		[
			78.9983376729943,
			148.036054639680,
			0
		],
		[
			134.134791901549,
			45.1412572929882,
			0
		],
		[
			134.134791901549,
			81.9231497907300,
			0
		],
		[
			132.019406105021,
			103.851816278068,
			0
		],
		[
			127.821995409646,
			119.253411317264,
			0
		],
		[
			121.608755489502,
			130.449495542444,
			0
		],
		[
			113.477672849740,
			138.568147107800,
			0
		],
		[
			103.556979520861,
			144.322815606677,
			0
		],
		[
			92.0031307629969,
			148.244937542319,
			0
		],
		[
			78.9983376729943,
			150.770792141893,
			0
		],
		[
			64.7476936065691,
			152.274868281697,
			0
		],
		[
			132.019406105021,
			33.6702212837277,
			0
		],
		[
			134.134791901549,
			76.6467735309001,
			0
		],
		[
			134.134791901549,
			100.428880293098,
			0
		],
		[
			132.019406105021,
			117.051127581192,
			0
		],
		[
			127.821995409646,
			129.186817802629,
			0
		],
		[
			121.608755489502,
			138.039723928660,
			0
		],
		[
			113.477672849740,
			144.339145868812,
			0
		],
		[
			103.556979520861,
			148.619020121275,
			0
		],
		[
			92.0031307629969,
			151.320842223698,
			0
		],
		[
			78.9983376729943,
			152.834874769562,
			0
		],
		[
			64.7476936065691,
			153.513896502638,
			0
		],
		[
			49.4759397335709,
			153.672302730606,
			0
		],
		[
			127.821995409646,
			30.4793220668061,
			0
		],
		[
			132.019406105021,
			74.7418395243442,
			0
		],
		[
			134.134791901549,
			99.0086153365041,
			0
		],
		[
			134.134791901549,
			116.125307800299,
			0
		],
		[
			132.019406105021,
			128.745535172232,
			0
		],
		[
			127.821995409646,
			138.026969005978,
			0
		],
		[
			121.608755489502,
			144.656360132619,
			0
		],
		[
			113.477672849740,
			149.133666874011,
			0
		],
		[
			103.556979520861,
			151.877665700539,
			0
		],
		[
			92.0031307629969,
			153.270002841354,
			0
		],
		[
			78.9983376729943,
			153.672031198658,
			0
		],
		[
			64.7476936065691,
			153.426654013388,
			0
		],
		[
			49.4759397335709,
			152.850334006404,
			0
		],
		[
			33.4239207354805,
			152.218372220683,
			0
		],
		[
			121.608755489502,
			37.9013278080705,
			0
		],
		[
			127.821995409646,
			76.5791540177815,
			0
		],
		[
			132.019406105021,
			99.7659029027270,
			0
		],
		[
			134.134791901549,
			116.564585255418,
			0
		],
		[
			134.134791901549,
			129.161757041232,
			0
		],
		[
			132.019406105021,
			138.530823340694,
			0
		],
		[
			127.821995409646,
			145.252660601210,
			0
		],
		[
			121.608755489502,
			149.755285030607,
			0
		],
		[
			113.477672849740,
			152.406390345149,
			0
		],
		[
			103.556979520861,
			153.554064957493,
			0
		],
		[
			92.0031307629969,
			153.544358180301,
			0
		],
		[
			78.9983376729943,
			152.725733688376,
			0
		],
		[
			64.7476936065691,
			151.444065507401,
			0
		],
		[
			49.4759397335709,
			150.029634499947,
			0
		],
		[
			33.4239207354805,
			148.777450894732,
			0
		],
		[
			113.477672849740,
			51.2284987290459,
			0
		],
		[
			121.608755489502,
			81.8005584948415,
			0
		],
		[
			127.821995409646,
			102.606481715720,
			0
		],
		[
			132.019406105021,
			118.326624937811,
			0
		],
		[
			134.134791901549,
			130.401414388082,
			0
		],
		[
			134.134791901549,
			139.514315970776,
			0
		],
		[
			132.019406105021,
			146.087458208204,
			0
		],
		[
			127.821995409646,
			150.443754836121,
			0
		],
		[
			121.608755489502,
			152.874248621556,
			0
		],
		[
			113.477672849740,
			153.670081105645,
			0
		],
		[
			103.556979520861,
			153.138209565465,
			0
		],
		[
			92.0031307629969,
			151.607700047128,
			0
		],
		[
			78.9983376729943,
			149.428704262130,
			0
		],
		[
			64.7476936065691,
			146.964096279876,
			0
		],
		[
			49.4759397335709,
			144.572979141171,
			0
		],
		[
			33.4239207354805,
			142.585869037517,
			0
		],
		[
			103.556979520861,
			66.4672662691454,
			0
		],
		[
			113.477672849740,
			89.5280680682830,
			0
		],
		[
			121.608755489502,
			107.196780733478,
			0
		],
		[
			127.821995409646,
			121.246624405599,
			0
		],
		[
			132.019406105021,
			132.365037112429,
			0
		],
		[
			134.134791901549,
			140.906451250323,
			0
		],
		[
			134.134791901549,
			147.104761472660,
			0
		],
		[
			132.019406105021,
			151.155212221790,
			0
		],
		[
			127.821995409646,
			153.252520847779,
			0
		],
		[
			121.608755489502,
			153.611142430274,
			0
		],
		[
			113.477672849740,
			152.477026314426,
			0
		],
		[
			103.556979520861,
			150.134448360857,
			0
		],
		[
			92.0031307629969,
			146.908893314162,
			0
		],
		[
			78.9983376729943,
			143.165298136554,
			0
		],
		[
			64.7476936065691,
			139.299597503141,
			0
		],
		[
			49.4759397335709,
			135.720582581663,
			0
		],
		[
			33.4239207354805,
			132.819494946979,
			0
		],
		[
			92.0031307629969,
			81.8805913837334,
			0
		],
		[
			103.556979520861,
			98.7573257553925,
			0
		],
		[
			113.477672849740,
			113.057073760066,
			0
		],
		[
			121.608755489502,
			125.068014623839,
			0
		],
		[
			127.821995409646,
			134.900931994584,
			0
		],
		[
			132.019406105021,
			142.609293893906,
			0
		],
		[
			134.134791901549,
			148.237615017749,
			0
		],
		[
			134.134791901549,
			151.844944953200,
			0
		],
		[
			132.019406105021,
			153.518173154755,
			0
		],
		[
			127.821995409646,
			153.380756892926,
			0
		],
		[
			121.608755489502,
			151.599352104517,
			0
		],
		[
			113.477672849740,
			148.389539930020,
			0
		],
		[
			103.556979520861,
			144.021108319781,
			0
		],
		[
			92.0031307629969,
			138.822598708147,
			0
		],
		[
			78.9983376729943,
			133.183649999577,
			0
		],
		[
			64.7476936065691,
			127.551722416078,
			0
		],
		[
			49.4759397335709,
			122.417120525696,
			0
		],
		[
			78.9983376729943,
			96.6451707886842,
			0
		],
		[
			92.0031307629969,
			108.606382780101,
			0
		],
		[
			103.556979520861,
			119.663042621988,
			0
		],
		[
			113.477672849740,
			129.482972335307,
			0
		],
		[
			121.608755489502,
			137.823140404700,
			0
		],
		[
			127.821995409646,
			144.506946030349,
			0
		],
		[
			132.019406105021,
			149.413056825621,
			0
		],
		[
			134.134791901549,
			152.470191158378,
			0
		],
		[
			134.134791901549,
			153.655127900337,
			0
		],
		[
			132.019406105021,
			152.992674176466,
			0
		],
		[
			127.821995409646,
			150.557099782729,
			0
		],
		[
			121.608755489502,
			146.475026941096,
			0
		],
		[
			113.477672849740,
			140.930114138167,
			0
		],
		[
			103.556979520861,
			134.170134420496,
			0
		],
		[
			92.0031307629969,
			126.517107478815,
			0
		],
		[
			78.9983376729943,
			118.380565965941,
			0
		],
		[
			64.7476936065691,
			110.271710880549,
			0
		],
		[
			64.7476936065691,
			110.271710880549,
			0
		],
		[
			78.9983376729943,
			118.380565965941,
			0
		],
		[
			92.0031307629969,
			126.517107478815,
			0
		],
		[
			103.556979520861,
			134.170134420496,
			0
		],
		[
			113.477672849740,
			140.930114138167,
			0
		],
		[
			121.608755489502,
			146.475026941096,
			0
		],
		[
			127.821995409646,
			150.557099782729,
			0
		],
		[
			132.019406105021,
			152.992674176466,
			0
		],
		[
			134.134791901549,
			153.655127900337,
			0
		],
		[
			134.134791901549,
			152.470191158378,
			0
		],
		[
			132.019406105021,
			149.413056825621,
			0
		],
		[
			127.821995409646,
			144.506946030349,
			0
		],
		[
			121.608755489502,
			137.823140404700,
			0
		],
		[
			113.477672849740,
			129.482972335307,
			0
		],
		[
			103.556979520861,
			119.663042621988,
			0
		],
		[
			92.0031307629969,
			108.606382780101,
			0
		],
		[
			78.9983376729943,
			96.6451707886842,
			0
		],
		[
			49.4759397335709,
			122.417120525696,
			0
		],
		[
			64.7476936065691,
			127.551722416078,
			0
		],
		[
			78.9983376729943,
			133.183649999577,
			0
		],
		[
			92.0031307629969,
			138.822598708147,
			0
		],
		[
			103.556979520861,
			144.021108319781,
			0
		],
		[
			113.477672849740,
			148.389539930020,
			0
		],
		[
			121.608755489502,
			151.599352104517,
			0
		],
		[
			127.821995409646,
			153.380756892926,
			0
		],
		[
			132.019406105021,
			153.518173154755,
			0
		],
		[
			134.134791901549,
			151.844944953200,
			0
		],
		[
			134.134791901549,
			148.237615017749,
			0
		],
		[
			132.019406105021,
			142.609293893906,
			0
		],
		[
			127.821995409646,
			134.900931994584,
			0
		],
		[
			121.608755489502,
			125.068014623839,
			0
		],
		[
			113.477672849740,
			113.057073760066,
			0
		],
		[
			103.556979520861,
			98.7573257553925,
			0
		],
		[
			92.0031307629969,
			81.8805913837334,
			0
		],
		[
			33.4239207354805,
			132.819494946979,
			0
		],
		[
			49.4759397335709,
			135.720582581663,
			0
		],
		[
			64.7476936065691,
			139.299597503141,
			0
		],
		[
			78.9983376729943,
			143.165298136554,
			0
		],
		[
			92.0031307629969,
			146.908893314162,
			0
		],
		[
			103.556979520861,
			150.134448360857,
			0
		],
		[
			113.477672849740,
			152.477026314426,
			0
		],
		[
			121.608755489502,
			153.611142430274,
			0
		],
		[
			127.821995409646,
			153.252520847779,
			0
		],
		[
			132.019406105021,
			151.155212221790,
			0
		],
		[
			134.134791901549,
			147.104761472660,
			0
		],
		[
			134.134791901549,
			140.906451250323,
			0
		],
		[
			132.019406105021,
			132.365037112429,
			0
		],
		[
			127.821995409646,
			121.246624405599,
			0
		],
		[
			121.608755489502,
			107.196780733478,
			0
		],
		[
			113.477672849740,
			89.5280680682830,
			0
		],
		[
			103.556979520861,
			66.4672662691454,
			0
		],
		[
			33.4239207354805,
			142.585869037517,
			0
		],
		[
			49.4759397335709,
			144.572979141171,
			0
		],
		[
			64.7476936065691,
			146.964096279876,
			0
		],
		[
			78.9983376729943,
			149.428704262130,
			0
		],
		[
			92.0031307629969,
			151.607700047128,
			0
		],
		[
			103.556979520861,
			153.138209565465,
			0
		],
		[
			113.477672849740,
			153.670081105645,
			0
		],
		[
			121.608755489502,
			152.874248621556,
			0
		],
		[
			127.821995409646,
			150.443754836121,
			0
		],
		[
			132.019406105021,
			146.087458208204,
			0
		],
		[
			134.134791901549,
			139.514315970776,
			0
		],
		[
			134.134791901549,
			130.401414388082,
			0
		],
		[
			132.019406105021,
			118.326624937811,
			0
		],
		[
			127.821995409646,
			102.606481715720,
			0
		],
		[
			121.608755489502,
			81.8005584948415,
			0
		],
		[
			113.477672849740,
			51.2284987290459,
			0
		],
		[
			33.4239207354805,
			148.777450894732,
			0
		],
		[
			49.4759397335709,
			150.029634499947,
			0
		],
		[
			64.7476936065691,
			151.444065507401,
			0
		],
		[
			78.9983376729943,
			152.725733688376,
			0
		],
		[
			92.0031307629969,
			153.544358180301,
			0
		],
		[
			103.556979520861,
			153.554064957493,
			0
		],
		[
			113.477672849740,
			152.406390345149,
			0
		],
		[
			121.608755489502,
			149.755285030607,
			0
		],
		[
			127.821995409646,
			145.252660601210,
			0
		],
		[
			132.019406105021,
			138.530823340694,
			0
		],
		[
			134.134791901549,
			129.161757041232,
			0
		],
		[
			134.134791901549,
			116.564585255418,
			0
		],
		[
			132.019406105021,
			99.7659029027271,
			0
		],
		[
			127.821995409646,
			76.5791540177814,
			0
		],
		[
			121.608755489502,
			37.9013278080705,
			0
		],
		[
			33.4239207354805,
			152.218372220683,
			0
		],
		[
			49.4759397335709,
			152.850334006404,
			0
		],
		[
			64.7476936065691,
			153.426654013388,
			0
		],
		[
			78.9983376729943,
			153.672031198658,
			0
		],
		[
			92.0031307629969,
			153.270002841354,
			0
		],
		[
			103.556979520861,
			151.877665700538,
			0
		],
		[
			113.477672849740,
			149.133666874011,
			0
		],
		[
			121.608755489502,
			144.656360132619,
			0
		],
		[
			127.821995409646,
			138.026969005978,
			0
		],
		[
			132.019406105021,
			128.745535172231,
			0
		],
		[
			134.134791901549,
			116.125307800299,
			0
		],
		[
			134.134791901549,
			99.0086153365041,
			0
		],
		[
			132.019406105021,
			74.7418395243442,
			0
		],
		[
			127.821995409646,
			30.4793220668061,
			0
		],
		[
			49.4759397335709,
			153.672302730606,
			0
		],
		[
			64.7476936065691,
			153.513896502638,
			0
		],
		[
			78.9983376729943,
			152.834874769562,
			0
		],
		[
			92.0031307629969,
			151.320842223698,
			0
		],
		[
			103.556979520861,
			148.619020121275,
			0
		],
		[
			113.477672849740,
			144.339145868812,
			0
		],
		[
			121.608755489502,
			138.039723928660,
			0
		],
		[
			127.821995409646,
			129.186817802629,
			0
		],
		[
			132.019406105021,
			117.051127581192,
			0
		],
		[
			134.134791901549,
			100.428880293098,
			0
		],
		[
			134.134791901549,
			76.6467735309002,
			0
		],
		[
			132.019406105021,
			33.6702212837276,
			0
		],
		[
			64.7476936065691,
			152.274868281697,
			0
		],
		[
			78.9983376729943,
			150.770792141893,
			0
		],
		[
			92.0031307629969,
			148.244937542319,
			0
		],
		[
			103.556979520861,
			144.322815606677,
			0
		],
		[
			113.477672849740,
			138.568147107800,
			0
		],
		[
			121.608755489502,
			130.449495542444,
			0
		],
		[
			127.821995409646,
			119.253411317264,
			0
		],
		[
			132.019406105021,
			103.851816278068,
			0
		],
		[
			134.134791901549,
			81.9231497907300,
			0
		],
		[
			134.134791901549,
			45.1412572929882,
			0
		],
		[
			78.9983376729943,
			148.036054639680,
			0
		],
		[
			92.0031307629969,
			144.608495406029,
			0
		],
		[
			103.556979520861,
			139.573486224053,
			0
		],
		[
			113.477672849740,
			132.432339716252,
			0
		],
		[
			121.608755489502,
			122.530064834122,
			0
		],
		[
			127.821995409646,
			108.887507767823,
			0
		],
		[
			132.019406105021,
			89.6872062862154,
			0
		],
		[
			134.134791901549,
			59.8692931043587,
			0
		],
		[
			92.0031307629969,
			140.983245111456,
			0
		],
		[
			103.556979520861,
			134.982379414198,
			0
		],
		[
			113.477672849740,
			126.601378764038,
			0
		],
		[
			121.608755489502,
			115.032672498312,
			0
		],
		[
			127.821995409646,
			98.9352630315080,
			0
		],
		[
			132.019406105021,
			75.3412418890080,
			0
		],
		[
			103.556979520861,
			131.150758077656,
			0
		],
		[
			113.477672849740,
			121.765422546315,
			0
		],
		[
			121.608755489502,
			108.788647615067,
			0
		],
		[
			127.821995409646,
			90.4555046924103,
			0
		]
	]
}