{
	"title":"|Im(M)|^2(kT3,kT4) (S34→4MT^2) w\/ E3=232 GeV",
	"vars":[
		"kT3",
		"kT4"
	],
	"data":[
		[
			48.8508833796546,
			102.299244311913,
			0
		],
		[
			48.8508833796546,
			90.8857210294435,
			0
		],
		[
			48.8508833796546,
			78.0388756338411,
			0
		],
		[
			48.8508833796546,
			63.9613105513284,
			0
		],
		[
			72.3117847589267,
			112.099447400978,
			0
		],
		[
			72.3117847589267,
			102.299244311913,
			0
		],
		[
			72.3117847589267,
			90.8857210294435,
			0
		],
		[
			72.3117847589267,
			78.0388756338411,
			0
		],
		[
			72.3117847589267,
			63.9613105513283,
			0
		],
		[
			72.3117847589267,
			48.8750373927863,
			0
		],
		[
			94.6322860955840,
			120.131775239566,
			0
		],
		[
			94.6322860955840,
			112.099447400978,
			0
		],
		[
			94.6322860955840,
			102.299244311913,
			0
		],
		[
			94.6322860955840,
			90.8857210294435,
			0
		],
		[
			94.6322860955840,
			78.0388756338411,
			0
		],
		[
			94.6322860955840,
			63.9613105513283,
			0
		],
		[
			94.6322860955840,
			48.8750373927863,
			0
		],
		[
			94.6322860955840,
			33.0179756980279,
			0
		],
		[
			115.460379749926,
			126.269553219381,
			0
		],
		[
			115.460379749926,
			120.131775239566,
			0
		],
		[
			115.460379749926,
			112.099447400978,
			0
		],
		[
			115.460379749926,
			102.299244311913,
			0
		],
		[
			115.460379749926,
			90.8857210294435,
			0
		],
		[
			115.460379749926,
			78.0388756338411,
			0
		],
		[
			115.460379749926,
			63.9613105513283,
			0
		],
		[
			115.460379749926,
			48.8750373927863,
			0
		],
		[
			115.460379749926,
			33.0179756980279,
			0
		],
		[
			134.467594242925,
			130.415984915152,
			0
		],
		[
			134.467594242925,
			126.269553219381,
			0
		],
		[
			134.467594242925,
			120.131775239565,
			0
		],
		[
			134.467594242925,
			112.099447400978,
			0
		],
		[
			134.467594242925,
			102.299244311913,
			0
		],
		[
			134.467594242925,
			90.8857210294435,
			0
		],
		[
			134.467594242925,
			78.0388756338411,
			0
		],
		[
			134.467594242925,
			63.9613105513284,
			0
		],
		[
			134.467594242925,
			48.8750373927863,
			0
		],
		[
			134.467594242925,
			33.0179756980279,
			0
		],
		[
			151.354174447665,
			132.505678622077,
			0
		],
		[
			151.354174447665,
			130.415984915152,
			0
		],
		[
			151.354174447665,
			126.269553219381,
			0
		],
		[
			151.354174447665,
			120.131775239566,
			0
		],
		[
			151.354174447665,
			112.099447400978,
			0
		],
		[
			151.354174447665,
			102.299244311913,
			0
		],
		[
			151.354174447665,
			90.8857210294435,
			0
		],
		[
			151.354174447665,
			78.0388756338411,
			0
		],
		[
			151.354174447665,
			63.9613105513283,
			0
		],
		[
			151.354174447665,
			48.8750373927863,
			0
		],
		[
			151.354174447665,
			33.0179756980279,
			0
		],
		[
			165.853808906765,
			132.505678622077,
			0
		],
		[
			165.853808906765,
			132.505678622077,
			0
		],
		[
			165.853808906765,
			130.415984915152,
			0
		],
		[
			165.853808906765,
			126.269553219381,
			0
		],
		[
			165.853808906765,
			120.131775239566,
			0
		],
		[
			165.853808906765,
			112.099447400978,
			0
		],
		[
			165.853808906765,
			102.299244311913,
			0
		],
		[
			165.853808906765,
			90.8857210294435,
			0
		],
		[
			165.853808906765,
			78.0388756338411,
			0
		],
		[
			165.853808906765,
			63.9613105513284,
			0
		],
		[
			165.853808906765,
			48.8750373927863,
			0
		],
		[
			177.737829723141,
			130.415984915152,
			0
		],
		[
			177.737829723141,
			132.505678622077,
			0
		],
		[
			177.737829723141,
			132.505678622077,
			0
		],
		[
			177.737829723141,
			130.415984915152,
			0
		],
		[
			177.737829723141,
			126.269553219381,
			0
		],
		[
			177.737829723141,
			120.131775239566,
			0
		],
		[
			177.737829723141,
			112.099447400978,
			0
		],
		[
			177.737829723141,
			102.299244311913,
			0
		],
		[
			177.737829723141,
			90.8857210294435,
			0
		],
		[
			177.737829723141,
			78.0388756338411,
			0
		],
		[
			177.737829723141,
			63.9613105513284,
			0
		],
		[
			186.818818789351,
			126.269553219381,
			0
		],
		[
			186.818818789351,
			130.415984915152,
			0
		],
		[
			186.818818789351,
			132.505678622077,
			0
		],
		[
			186.818818789351,
			132.505678622077,
			0
		],
		[
			186.818818789351,
			130.415984915152,
			0
		],
		[
			186.818818789351,
			126.269553219381,
			0
		],
		[
			186.818818789351,
			120.131775239566,
			0
		],
		[
			186.818818789351,
			112.099447400978,
			0
		],
		[
			186.818818789351,
			102.299244311913,
			0
		],
		[
			186.818818789351,
			90.8857210294435,
			0
		],
		[
			186.818818789351,
			78.0388756338411,
			0
		],
		[
			192.953563483100,
			120.131775239565,
			0
		],
		[
			192.953563483100,
			126.269553219381,
			0
		],
		[
			192.953563483100,
			130.415984915152,
			0
		],
		[
			192.953563483100,
			132.505678622077,
			0
		],
		[
			192.953563483100,
			132.505678622077,
			0
		],
		[
			192.953563483100,
			130.415984915152,
			0
		],
		[
			192.953563483100,
			126.269553219381,
			0
		],
		[
			192.953563483100,
			120.131775239566,
			0
		],
		[
			192.953563483100,
			112.099447400978,
			0
		],
		[
			192.953563483100,
			102.299244311913,
			0
		],
		[
			192.953563483100,
			90.8857210294435,
			0
		],
		[
			196.045315215849,
			112.099447400978,
			0
		],
		[
			196.045315215849,
			120.131775239565,
			0
		],
		[
			196.045315215849,
			126.269553219381,
			0
		],
		[
			196.045315215849,
			130.415984915152,
			0
		],
		[
			196.045315215849,
			132.505678622077,
			0
		],
		[
			196.045315215849,
			132.505678622077,
			0
		],
		[
			196.045315215849,
			130.415984915152,
			0
		],
		[
			196.045315215849,
			126.269553219381,
			0
		],
		[
			196.045315215849,
			120.131775239566,
			0
		],
		[
			196.045315215849,
			112.099447400978,
			0
		],
		[
			196.045315215849,
			102.299244311913,
			0
		],
		[
			196.045315215849,
			102.299244311913,
			0
		],
		[
			196.045315215849,
			112.099447400978,
			0
		],
		[
			196.045315215849,
			120.131775239566,
			0
		],
		[
			196.045315215849,
			126.269553219381,
			0
		],
		[
			196.045315215849,
			130.415984915152,
			0
		],
		[
			196.045315215849,
			132.505678622077,
			0
		],
		[
			196.045315215849,
			132.505678622077,
			0
		],
		[
			196.045315215849,
			130.415984915152,
			0
		],
		[
			196.045315215849,
			126.269553219381,
			0
		],
		[
			196.045315215849,
			120.131775239565,
			0
		],
		[
			196.045315215849,
			112.099447400978,
			0
		],
		[
			192.953563483100,
			90.8857210294435,
			0
		],
		[
			192.953563483100,
			102.299244311913,
			0
		],
		[
			192.953563483100,
			112.099447400978,
			0
		],
		[
			192.953563483100,
			120.131775239566,
			0
		],
		[
			192.953563483100,
			126.269553219381,
			0
		],
		[
			192.953563483100,
			130.415984915152,
			0
		],
		[
			192.953563483100,
			132.505678622077,
			0
		],
		[
			192.953563483100,
			132.505678622077,
			0
		],
		[
			192.953563483100,
			130.415984915152,
			0
		],
		[
			192.953563483100,
			126.269553219381,
			0
		],
		[
			192.953563483100,
			120.131775239565,
			0
		],
		[
			186.818818789351,
			78.0388756338411,
			0
		],
		[
			186.818818789351,
			90.8857210294435,
			0
		],
		[
			186.818818789351,
			102.299244311913,
			0
		],
		[
			186.818818789351,
			112.099447400978,
			0
		],
		[
			186.818818789351,
			120.131775239566,
			0
		],
		[
			186.818818789351,
			126.269553219381,
			0
		],
		[
			186.818818789351,
			130.415984915152,
			0
		],
		[
			186.818818789351,
			132.505678622077,
			0
		],
		[
			186.818818789351,
			132.505678622077,
			0
		],
		[
			186.818818789351,
			130.415984915152,
			0
		],
		[
			186.818818789351,
			126.269553219381,
			0
		],
		[
			177.737829723141,
			63.9613105513284,
			0
		],
		[
			177.737829723141,
			78.0388756338411,
			0
		],
		[
			177.737829723141,
			90.8857210294435,
			0
		],
		[
			177.737829723141,
			102.299244311913,
			0
		],
		[
			177.737829723141,
			112.099447400978,
			0
		],
		[
			177.737829723141,
			120.131775239566,
			0
		],
		[
			177.737829723141,
			126.269553219381,
			0
		],
		[
			177.737829723141,
			130.415984915152,
			0
		],
		[
			177.737829723141,
			132.505678622077,
			0
		],
		[
			177.737829723141,
			132.505678622077,
			0
		],
		[
			177.737829723141,
			130.415984915152,
			0
		],
		[
			165.853808906765,
			48.8750373927863,
			0
		],
		[
			165.853808906765,
			63.9613105513284,
			0
		],
		[
			165.853808906765,
			78.0388756338411,
			0
		],
		[
			165.853808906765,
			90.8857210294435,
			0
		],
		[
			165.853808906765,
			102.299244311913,
			0
		],
		[
			165.853808906765,
			112.099447400978,
			0
		],
		[
			165.853808906765,
			120.131775239566,
			0
		],
		[
			165.853808906765,
			126.269553219381,
			0
		],
		[
			165.853808906765,
			130.415984915152,
			0
		],
		[
			165.853808906765,
			132.505678622077,
			0
		],
		[
			165.853808906765,
			132.505678622077,
			0
		],
		[
			151.354174447665,
			33.0179756980279,
			0
		],
		[
			151.354174447665,
			48.8750373927863,
			0
		],
		[
			151.354174447665,
			63.9613105513283,
			0
		],
		[
			151.354174447665,
			78.0388756338411,
			0
		],
		[
			151.354174447665,
			90.8857210294435,
			0
		],
		[
			151.354174447665,
			102.299244311913,
			0
		],
		[
			151.354174447665,
			112.099447400978,
			0
		],
		[
			151.354174447665,
			120.131775239566,
			0
		],
		[
			151.354174447665,
			126.269553219381,
			0
		],
		[
			151.354174447665,
			130.415984915152,
			0
		],
		[
			151.354174447665,
			132.505678622077,
			0
		],
		[
			134.467594242925,
			33.0179756980279,
			0
		],
		[
			134.467594242925,
			48.8750373927863,
			0
		],
		[
			134.467594242925,
			63.9613105513284,
			0
		],
		[
			134.467594242925,
			78.0388756338411,
			0
		],
		[
			134.467594242925,
			90.8857210294435,
			0
		],
		[
			134.467594242925,
			102.299244311913,
			0
		],
		[
			134.467594242925,
			112.099447400978,
			0
		],
		[
			134.467594242925,
			120.131775239565,
			0
		],
		[
			134.467594242925,
			126.269553219381,
			0
		],
		[
			134.467594242925,
			130.415984915152,
			0
		],
		[
			115.460379749926,
			33.0179756980279,
			0
		],
		[
			115.460379749926,
			48.8750373927863,
			0
		],
		[
			115.460379749926,
			63.9613105513283,
			0
		],
		[
			115.460379749926,
			78.0388756338411,
			0
		],
		[
			115.460379749926,
			90.8857210294435,
			0
		],
		[
			115.460379749926,
			102.299244311913,
			0
		],
		[
			115.460379749926,
			112.099447400978,
			0
		],
		[
			115.460379749926,
			120.131775239566,
			0
		],
		[
			115.460379749926,
			126.269553219381,
			0
		],
		[
			94.6322860955840,
			33.0179756980279,
			0
		],
		[
			94.6322860955840,
			48.8750373927863,
			0
		],
		[
			94.6322860955840,
			63.9613105513283,
			0
		],
		[
			94.6322860955840,
			78.0388756338411,
			0
		],
		[
			94.6322860955840,
			90.8857210294435,
			0
		],
		[
			94.6322860955840,
			102.299244311913,
			0
		],
		[
			94.6322860955840,
			112.099447400978,
			0
		],
		[
			94.6322860955840,
			120.131775239566,
			0
		],
		[
			72.3117847589267,
			48.8750373927863,
			0
		],
		[
			72.3117847589267,
			63.9613105513283,
			0
		],
		[
			72.3117847589267,
			78.0388756338411,
			0
		],
		[
			72.3117847589267,
			90.8857210294435,
			0
		],
		[
			72.3117847589267,
			102.299244311913,
			0
		],
		[
			72.3117847589267,
			112.099447400978,
			0
		],
		[
			48.8508833796546,
			63.9613105513284,
			0
		],
		[
			48.8508833796546,
			78.0388756338411,
			0
		],
		[
			48.8508833796546,
			90.8857210294435,
			0
		],
		[
			48.8508833796546,
			102.299244311913,
			0
		]
	]
}